RN= 109.2
N= 96
F= 48
E= 144
N, 1.000000, 0.000000, -10.544622,  * 1
N, 1.000000, 0.000000, 10.544622,  * 2
N, 0.965926, 0.258819, -10.544622,  * 3
N, 0.965926, 0.258819, 10.544622,  * 4
N, 0.866025, 0.500000, -10.544622,  * 5
N, 0.866025, 0.500000, 10.544622,  * 6
N, 0.707107, 0.707107, -10.544622,  * 7
N, 0.707107, 0.707107, 10.544622,  * 8
N, 0.500000, 0.866025, -10.544622,  * 9
N, 0.500000, 0.866025, 10.544622,  * 10
N, 0.258819, 0.965926, -10.544622,  * 11
N, 0.258819, 0.965926, 10.544622,  * 12
N, 0.000000, 1.000000, -10.544622,  * 13
N, 0.000000, 1.000000, 10.544622,  * 14
N, -0.258819, 0.965926, -10.544622,  * 15
N, -0.258819, 0.965926, 10.544622,  * 16
N, -0.500000, 0.866025, -10.544622,  * 17
N, -0.500000, 0.866025, 10.544622,  * 18
N, -0.707107, 0.707107, -10.544622,  * 19
N, -0.707107, 0.707107, 10.544622,  * 20
N, -0.866025, 0.500000, -10.544622,  * 21
N, -0.866025, 0.500000, 10.544622,  * 22
N, -0.965926, 0.258819, -10.544622,  * 23
N, -0.965926, 0.258819, 10.544622,  * 24
N, -1.000000, 0.000000, -10.544622,  * 25
N, -1.000000, 0.000000, 10.544622,  * 26
N, -0.965926, -0.258819, -10.544622,  * 27
N, -0.965926, -0.258819, 10.544622,  * 28
N, -0.866025, -0.500000, -10.544622,  * 29
N, -0.866025, -0.500000, 10.544622,  * 30
N, -0.707107, -0.707107, -10.544622,  * 31
N, -0.707107, -0.707107, 10.544622,  * 32
N, -0.500000, -0.866025, -10.544622,  * 33
N, -0.500000, -0.866025, 10.544622,  * 34
N, -0.258819, -0.965926, -10.544622,  * 35
N, -0.258819, -0.965926, 10.544622,  * 36
N, -0.000000, -1.000000, -10.544622,  * 37
N, -0.000000, -1.000000, 10.544622,  * 38
N, 0.258819, -0.965926, -10.544622,  * 39
N, 0.258819, -0.965926, 10.544622,  * 40
N, 0.500000, -0.866025, -10.544622,  * 41
N, 0.500000, -0.866025, 10.544622,  * 42
N, 0.707107, -0.707107, -10.544622,  * 43
N, 0.707107, -0.707107, 10.544622,  * 44
N, 0.866025, -0.500000, -10.544622,  * 45
N, 0.866025, -0.500000, 10.544622,  * 46
N, 0.965926, -0.258819, -10.544622,  * 47
N, 0.965926, -0.258819, 10.544622,  * 48
N, 0.203455, 0.000000, -10.544622,  * 49
N, 0.203455, 0.000000, 10.544622,  * 50
N, 0.196523, 0.052658, -10.544622,  * 51
N, 0.196523, 0.052658, 10.544622,  * 52
N, 0.176198, 0.101728, -10.544622,  * 53
N, 0.176198, 0.101728, 10.544622,  * 54
N, 0.143865, 0.143865, -10.544622,  * 55
N, 0.143865, 0.143865, 10.544622,  * 56
N, 0.101728, 0.176198, -10.544622,  * 57
N, 0.101728, 0.176198, 10.544622,  * 58
N, 0.052658, 0.196523, -10.544622,  * 59
N, 0.052658, 0.196523, 10.544622,  * 60
N, 0.000000, 0.203455, -10.544622,  * 61
N, 0.000000, 0.203455, 10.544622,  * 62
N, -0.052658, 0.196523, -10.544622,  * 63
N, -0.052658, 0.196523, 10.544622,  * 64
N, -0.101728, 0.176198, -10.544622,  * 65
N, -0.101728, 0.176198, 10.544622,  * 66
N, -0.143865, 0.143865, -10.544622,  * 67
N, -0.143865, 0.143865, 10.544622,  * 68
N, -0.176198, 0.101728, -10.544622,  * 69
N, -0.176198, 0.101728, 10.544622,  * 70
N, -0.196523, 0.052658, -10.544622,  * 71
N, -0.196523, 0.052658, 10.544622,  * 72
N, -0.203455, 0.000000, -10.544622,  * 73
N, -0.203455, 0.000000, 10.544622,  * 74
N, -0.196523, -0.052658, -10.544622,  * 75
N, -0.196523, -0.052658, 10.544622,  * 76
N, -0.176198, -0.101728, -10.544622,  * 77
N, -0.176198, -0.101728, 10.544622,  * 78
N, -0.143865, -0.143865, -10.544622,  * 79
N, -0.143865, -0.143865, 10.544622,  * 80
N, -0.101728, -0.176198, -10.544622,  * 81
N, -0.101728, -0.176198, 10.544622,  * 82
N, -0.052658, -0.196523, -10.544622,  * 83
N, -0.052658, -0.196523, 10.544622,  * 84
N, -0.000000, -0.203455, -10.544622,  * 85
N, -0.000000, -0.203455, 10.544622,  * 86
N, 0.052658, -0.196523, -10.544622,  * 87
N, 0.052658, -0.196523, 10.544622,  * 88
N, 0.101728, -0.176198, -10.544622,  * 89
N, 0.101728, -0.176198, 10.544622,  * 90
N, 0.143865, -0.143865, -10.544622,  * 91
N, 0.143865, -0.143865, 10.544622,  * 92
N, 0.176198, -0.101728, -10.544622,  * 93
N, 0.176198, -0.101728, 10.544622,  * 94
N, 0.196523, -0.052658, -10.544622,  * 95
N, 0.196523, -0.052658, 10.544622,  * 96
F, 4, 1, 2, 4, 3,  * 1
F, 4, 3, 4, 6, 5,  * 2
F, 4, 5, 6, 8, 7,  * 3
F, 4, 7, 8, 10, 9,  * 4
F, 4, 9, 10, 12, 11,  * 5
F, 4, 11, 12, 14, 13,  * 6
F, 4, 13, 14, 16, 15,  * 7
F, 4, 15, 16, 18, 17,  * 8
F, 4, 17, 18, 20, 19,  * 9
F, 4, 19, 20, 22, 21,  * 10
F, 4, 21, 22, 24, 23,  * 11
F, 4, 23, 24, 26, 25,  * 12
F, 4, 25, 26, 28, 27,  * 13
F, 4, 27, 28, 30, 29,  * 14
F, 4, 29, 30, 32, 31,  * 15
F, 4, 31, 32, 34, 33,  * 16
F, 4, 33, 34, 36, 35,  * 17
F, 4, 35, 36, 38, 37,  * 18
F, 4, 37, 38, 40, 39,  * 19
F, 4, 39, 40, 42, 41,  * 20
F, 4, 41, 42, 44, 43,  * 21
F, 4, 43, 44, 46, 45,  * 22
F, 4, 45, 46, 48, 47,  * 23
F, 4, 47, 48, 2, 1,  * 24
F, 4, 49, 50, 52, 51,  * 25
F, 4, 51, 52, 54, 53,  * 26
F, 4, 53, 54, 56, 55,  * 27
F, 4, 55, 56, 58, 57,  * 28
F, 4, 57, 58, 60, 59,  * 29
F, 4, 59, 60, 62, 61,  * 30
F, 4, 61, 62, 64, 63,  * 31
F, 4, 63, 64, 66, 65,  * 32
F, 4, 65, 66, 68, 67,  * 33
F, 4, 67, 68, 70, 69,  * 34
F, 4, 69, 70, 72, 71,  * 35
F, 4, 71, 72, 74, 73,  * 36
F, 4, 73, 74, 76, 75,  * 37
F, 4, 75, 76, 78, 77,  * 38
F, 4, 77, 78, 80, 79,  * 39
F, 4, 79, 80, 82, 81,  * 40
F, 4, 81, 82, 84, 83,  * 41
F, 4, 83, 84, 86, 85,  * 42
F, 4, 85, 86, 88, 87,  * 43
F, 4, 87, 88, 90, 89,  * 44
F, 4, 89, 90, 92, 91,  * 45
F, 4, 91, 92, 94, 93,  * 46
F, 4, 93, 94, 96, 95,  * 47
F, 4, 95, 96, 50, 49,  * 48
E, 3, 1,  * 1
E, 1, 2,  * 2
E, 2, 4,  * 3
E, 5, 3,  * 4
E, 3, 4,  * 5
E, 4, 6,  * 6
E, 7, 5,  * 7
E, 5, 6,  * 8
E, 6, 8,  * 9
E, 9, 7,  * 10
E, 7, 8,  * 11
E, 8, 10,  * 12
E, 11, 9,  * 13
E, 9, 10,  * 14
E, 10, 12,  * 15
E, 13, 11,  * 16
E, 11, 12,  * 17
E, 12, 14,  * 18
E, 15, 13,  * 19
E, 13, 14,  * 20
E, 14, 16,  * 21
E, 17, 15,  * 22
E, 15, 16,  * 23
E, 16, 18,  * 24
E, 19, 17,  * 25
E, 17, 18,  * 26
E, 18, 20,  * 27
E, 21, 19,  * 28
E, 19, 20,  * 29
E, 20, 22,  * 30
E, 23, 21,  * 31
E, 21, 22,  * 32
E, 22, 24,  * 33
E, 25, 23,  * 34
E, 23, 24,  * 35
E, 24, 26,  * 36
E, 27, 25,  * 37
E, 25, 26,  * 38
E, 26, 28,  * 39
E, 29, 27,  * 40
E, 27, 28,  * 41
E, 28, 30,  * 42
E, 31, 29,  * 43
E, 29, 30,  * 44
E, 30, 32,  * 45
E, 33, 31,  * 46
E, 31, 32,  * 47
E, 32, 34,  * 48
E, 35, 33,  * 49
E, 33, 34,  * 50
E, 34, 36,  * 51
E, 37, 35,  * 52
E, 35, 36,  * 53
E, 36, 38,  * 54
E, 39, 37,  * 55
E, 37, 38,  * 56
E, 38, 40,  * 57
E, 41, 39,  * 58
E, 39, 40,  * 59
E, 40, 42,  * 60
E, 43, 41,  * 61
E, 41, 42,  * 62
E, 42, 44,  * 63
E, 45, 43,  * 64
E, 43, 44,  * 65
E, 44, 46,  * 66
E, 47, 45,  * 67
E, 45, 46,  * 68
E, 46, 48,  * 69
E, 1, 47,  * 70
E, 47, 48,  * 71
E, 48, 2,  * 72
E, 51, 49,  * 73
E, 49, 50,  * 74
E, 50, 52,  * 75
E, 53, 51,  * 76
E, 51, 52,  * 77
E, 52, 54,  * 78
E, 55, 53,  * 79
E, 53, 54,  * 80
E, 54, 56,  * 81
E, 57, 55,  * 82
E, 55, 56,  * 83
E, 56, 58,  * 84
E, 59, 57,  * 85
E, 57, 58,  * 86
E, 58, 60,  * 87
E, 61, 59,  * 88
E, 59, 60,  * 89
E, 60, 62,  * 90
E, 63, 61,  * 91
E, 61, 62,  * 92
E, 62, 64,  * 93
E, 65, 63,  * 94
E, 63, 64,  * 95
E, 64, 66,  * 96
E, 67, 65,  * 97
E, 65, 66,  * 98
E, 66, 68,  * 99
E, 69, 67,  * 100
E, 67, 68,  * 101
E, 68, 70,  * 102
E, 71, 69,  * 103
E, 69, 70,  * 104
E, 70, 72,  * 105
E, 73, 71,  * 106
E, 71, 72,  * 107
E, 72, 74,  * 108
E, 75, 73,  * 109
E, 73, 74,  * 110
E, 74, 76,  * 111
E, 77, 75,  * 112
E, 75, 76,  * 113
E, 76, 78,  * 114
E, 79, 77,  * 115
E, 77, 78,  * 116
E, 78, 80,  * 117
E, 81, 79,  * 118
E, 79, 80,  * 119
E, 80, 82,  * 120
E, 83, 81,  * 121
E, 81, 82,  * 122
E, 82, 84,  * 123
E, 85, 83,  * 124
E, 83, 84,  * 125
E, 84, 86,  * 126
E, 87, 85,  * 127
E, 85, 86,  * 128
E, 86, 88,  * 129
E, 89, 87,  * 130
E, 87, 88,  * 131
E, 88, 90,  * 132
E, 91, 89,  * 133
E, 89, 90,  * 134
E, 90, 92,  * 135
E, 93, 91,  * 136
E, 91, 92,  * 137
E, 92, 94,  * 138
E, 95, 93,  * 139
E, 93, 94,  * 140
E, 94, 96,  * 141
E, 49, 95,  * 142
E, 95, 96,  * 143
E, 96, 50,  * 144
