10.8893 4296 0.154995
10.9057 4288 0.154502
10.922 4280 0.15401
10.9383 4272 0.15352
10.954600000000001 4264 0.153032
10.9708 4256 0.152546
10.9871 4248 0.152061
11.0033 4240 0.151579
11.019499999999999 4232 0.151097
11.0357 4224 0.150618
11.0519 4216 0.15014
11.068000000000001 4208 0.149664
11.0842 4200 0.14919
11.1003 4192 0.148717
11.1164 4184 0.148246
11.1324 4176 0.147776
11.1485 4168 0.147309
11.1645 4160 0.146843
11.1805 4152 0.146378
11.1965 4144 0.145916
11.2125 4136 0.145455
11.2284 4128 0.144995
11.2444 4120 0.144537
11.260299999999999 4112 0.144081
11.2762 4104 0.143627
11.292 4096 0.143174
11.3079 4088 0.142723
11.323699999999999 4080 0.142273
11.3395 4072 0.141825
11.3553 4064 0.141378
11.3711 4056 0.140934
11.3868 4048 0.14049
11.4026 4040 0.140049
11.4183 4032 0.139609
11.434000000000001 4024 0.13917
11.4497 4016 0.138733
11.465300000000001 4008 0.138298
11.481 4000 0.137864
11.496599999999999 3992 0.137431
11.5122 3984 0.137001
11.527800000000001 3976 0.136571
11.5433 3968 0.136144
11.5589 3960 0.135718
11.5744 3952 0.135293
11.5899 3944 0.13487
11.6054 3936 0.134448
11.6208 3928 0.134028
11.6363 3920 0.13361
11.6517 3912 0.133193
11.667100000000001 3904 0.132777
11.682500000000001 3896 0.132363
11.6979 3888 0.13195
11.7132 3880 0.131539
11.7286 3872 0.13113
11.7439 3864 0.130721
11.7592 3856 0.130315
11.7745 3848 0.129909
11.7897 3840 0.129506
11.805 3832 0.129103
11.8202 3824 0.128702
11.8354 3816 0.128303
11.8506 3808 0.127905
11.8658 3800 0.127508
11.8809 3792 0.127113
11.895999999999999 3784 0.126719
11.911100000000001 3776 0.126327
11.9262 3768 0.125936
11.9413 3760 0.125546
11.956399999999999 3752 0.125158
11.9714 3744 0.124771
11.9864 3736 0.124386
12.0014 3728 0.124002
12.0164 3720 0.123619
12.0314 3712 0.123238
12.046299999999999 3704 0.122858
12.0613 3696 0.122479
12.0762 3688 0.122102
12.0911 3680 0.121726
12.106 3672 0.121351
12.1208 3664 0.120978
12.1357 3656 0.120606
12.1505 3648 0.120235
12.1653 3640 0.119866
12.1801 3632 0.119498
12.194799999999999 3624 0.119132
12.2096 3616 0.118766
12.2243 3608 0.118402
12.2391 3600 0.118039
12.2538 3592 0.117678
12.2684 3584 0.117318
12.283100000000001 3576 0.116959
12.2977 3568 0.116601
12.3124 3560 0.116245
12.327 3552 0.11589
12.3416 3544 0.115536
12.3562 3536 0.115183
12.3707 3528 0.114832
12.385299999999999 3520 0.114481
12.3998 3512 0.114132
12.4143 3504 0.113785
12.428799999999999 3496 0.113438
12.4433 3488 0.113093
12.457699999999999 3480 0.112749
12.472199999999999 3472 0.112406
12.4866 3464 0.112064
12.501000000000001 3456 0.111724
12.5154 3448 0.111385
12.5297 3440 0.111047
12.5441 3432 0.11071
12.5584 3424 0.110374
12.572799999999999 3416 0.110039
12.5871 3408 0.109706
12.6013 3400 0.109374
12.6156 3392 0.109043
12.629900000000001 3384 0.108713
12.6441 3376 0.108384
12.6583 3368 0.108056
12.6725 3360 0.10773
12.6867 3352 0.107404
12.7009 3344 0.10708
12.715 3336 0.106757
12.7292 3328 0.106435
12.743300000000001 3320 0.106114
12.7574 3312 0.105794
12.7715 3304 0.105475
12.7855 3296 0.105157
12.7996 3288 0.104841
12.8136 3280 0.104525
12.827699999999998 3272 0.104211
12.8417 3264 0.103897
12.8556 3256 0.103585
12.8696 3248 0.103274
12.883600000000001 3240 0.102963
12.897499999999999 3232 0.102654
12.9114 3224 0.102346
12.925299999999998 3216 0.102039
12.9392 3208 0.101733
12.953100000000001 3200 0.101428
12.966999999999999 3192 0.101124
12.980799999999999 3184 0.100821
12.9946 3176 0.100519
13.008500000000002 3168 0.100218
13.022200000000002 3160 0.0999176
13.036000000000001 3152 0.0996186
13.0498 3144 0.0993205
13.0635 3136 0.0990234
13.0773 3128 0.0987273
13.091 3120 0.0984322
13.1047 3112 0.098138
13.1184 3104 0.0978448
13.132 3096 0.0975526
13.1457 3088 0.0972613
13.159299999999998 3080 0.0969709
13.172999999999998 3072 0.0966815
13.186600000000002 3064 0.096393
13.2001 3056 0.0961054
13.2137 3048 0.0958188
13.2273 3040 0.0955331
13.240799999999998 3032 0.0952482
13.2544 3024 0.0949643
13.267900000000001 3016 0.0946813
13.2814 3008 0.0943992
13.294900000000002 3000 0.094118
13.3083 2992 0.0938376
13.3218 2984 0.0935582
13.3352 2976 0.0932796
13.3486 2968 0.0930019
13.362 2960 0.092725
13.375399999999999 2952 0.092449
13.3888 2944 0.0921738
13.402199999999999 2936 0.0918995
13.4155 2928 0.0916261
13.428899999999999 2920 0.0913535
13.4422 2912 0.0910817
13.4555 2904 0.0908107
13.468799999999998 2896 0.0905405
13.482 2888 0.0902712
13.4953 2880 0.0900027
13.508500000000002 2872 0.089735
13.521799999999999 2864 0.089468
13.535 2856 0.0892019
13.5482 2848 0.0889366
13.5614 2840 0.088672
13.5745 2832 0.0884082
13.587700000000002 2824 0.0881452
13.600800000000001 2816 0.087883
13.613900000000001 2808 0.0876215
13.627099999999999 2800 0.0873608
13.640199999999998 2792 0.0871008
13.653200000000002 2784 0.0868415
13.666300000000001 2776 0.0865831
13.679400000000001 2768 0.0863253
13.692400000000001 2760 0.0860683
13.705400000000001 2752 0.085812
13.718399999999999 2744 0.0855564
13.731399999999999 2736 0.0853015
13.744399999999999 2728 0.0850473
13.7574 2720 0.0847939
13.7703 2712 0.0845411
13.7833 2704 0.084289
13.796199999999999 2696 0.0840377
13.8091 2688 0.0837869
13.822 2680 0.0835369
13.8349 2672 0.0832876
13.847800000000001 2664 0.0830389
13.8606 2656 0.0827908
13.873500000000002 2648 0.0825434
13.8863 2640 0.0822967
13.8991 2632 0.0820506
13.9119 2624 0.0818052
13.924700000000001 2616 0.0815604
13.9375 2608 0.0813162
13.9502 2600 0.0810726
13.963 2592 0.0808296
13.9757 2584 0.0805873
13.988399999999999 2576 0.0803456
14.0011 2568 0.0801044
14.0138 2560 0.0798639
14.026499999999999 2552 0.0796239
14.0391 2544 0.0793846
14.0518 2536 0.0791458
14.064400000000001 2528 0.0789076
14.077000000000002 2520 0.07867
14.089699999999999 2512 0.0784329
14.1023 2504 0.0781964
14.114799999999999 2496 0.0779604
14.1274 2488 0.077725
14.14 2480 0.0774901
14.1525 2472 0.0772558
14.165000000000001 2464 0.0770219
14.177600000000002 2456 0.0767887
14.190100000000001 2448 0.0765559
14.2025 2440 0.0763236
14.215 2432 0.0760919
14.227500000000001 2424 0.0758607
14.2399 2416 0.0756299
14.2524 2408 0.0753997
14.2648 2400 0.07517
14.277199999999999 2392 0.0749407
14.289599999999998 2384 0.0747119
14.302000000000001 2376 0.0744836
14.314400000000001 2368 0.0742557
14.326699999999999 2360 0.0740283
14.339099999999998 2352 0.0738014
14.351400000000002 2344 0.0735749
14.363800000000001 2336 0.0733489
14.3761 2328 0.0731233
14.388399999999999 2320 0.0728981
14.4006 2312 0.0726734
14.412899999999999 2304 0.0724491
14.4252 2296 0.0722252
14.4374 2288 0.0720017
14.449700000000002 2280 0.0717787
14.4619 2272 0.071556
14.474100000000002 2264 0.0713337
14.4863 2256 0.0711119
14.498500000000002 2248 0.0708904
14.5107 2240 0.0706693
14.5228 2232 0.0704486
14.535 2224 0.0702282
14.5471 2216 0.0700082
14.5592 2208 0.0697886
14.571299999999999 2200 0.0695693
14.583400000000001 2192 0.0693504
14.595500000000001 2184 0.0691318
14.6076 2176 0.0689136
14.6197 2168 0.0686956
14.6317 2160 0.0684781
14.643799999999999 2152 0.0682608
14.6558 2144 0.0680439
14.6678 2136 0.0678272
14.6798 2128 0.0676109
14.6918 2120 0.0673949
14.703800000000001 2112 0.0671792
14.715799999999998 2104 0.0669637
14.727699999999999 2096 0.0667486
14.7397 2088 0.0665337
14.7516 2080 0.0663191
14.763499999999999 2072 0.0661048
14.7754 2064 0.0658907
14.787299999999998 2056 0.0656769
14.799199999999999 2048 0.0654634
14.8111 2040 0.0652501
14.8229 2032 0.065037
14.834800000000001 2024 0.0648242
14.8466 2016 0.0646116
14.858500000000001 2008 0.0643992
14.8703 2000 0.0641871
14.8821 1992 0.0639752
14.893899999999999 1984 0.0637635
14.9057 1976 0.063552
14.9175 1968 0.0633406
14.9292 1960 0.0631295
14.940999999999999 1952 0.0629186
14.952699999999998 1944 0.0627079
14.964400000000001 1936 0.0624973
14.9762 1928 0.0622869
14.9879 1920 0.0620767
14.999600000000001 1912 0.0618666
15.011199999999999 1904 0.0616567
15.022900000000002 1896 0.061447
15.034600000000001 1888 0.0612374
15.046199999999999 1880 0.0610279
15.0579 1872 0.0608186
15.0695 1864 0.0606094
15.081100000000001 1856 0.0604003
15.092699999999999 1848 0.0601913
15.1043 1840 0.0599825
15.1159 1832 0.0597738
15.127500000000001 1824 0.0595651
15.1391 1816 0.0593566
15.1506 1808 0.0591482
15.162200000000002 1800 0.0589398
15.1737 1792 0.0587316
15.1852 1784 0.0585234
15.196700000000002 1776 0.0583152
15.2082 1768 0.0581072
15.2197 1760 0.0578992
15.231200000000001 1752 0.0576913
15.2427 1744 0.0574834
15.2541 1736 0.0572755
15.265600000000001 1728 0.0570677
15.277000000000001 1720 0.05686
15.288499999999999 1712 0.0566522
15.2999 1704 0.0564445
15.3113 1696 0.0562368
15.322700000000001 1688 0.0560291
15.334100000000001 1680 0.0558215
15.345500000000001 1672 0.0556138
15.356800000000002 1664 0.0554061
15.368199999999998 1656 0.0551984
15.379499999999998 1648 0.0549907
15.390899999999998 1640 0.054783
15.402199999999999 1632 0.0545752
15.413499999999999 1624 0.0543675
15.4248 1616 0.0541597
15.4361 1608 0.0539518
15.447399999999998 1600 0.0537439
15.458699999999999 1592 0.053536
15.469999999999999 1584 0.053328
15.481200000000001 1576 0.0531199
15.492500000000001 1568 0.0529118
15.5037 1560 0.0527035
15.515 1552 0.0524953
15.5262 1544 0.0522869
15.5374 1536 0.0520784
15.548599999999999 1528 0.0518699
15.559800000000001 1520 0.0516612
15.571000000000002 1512 0.0514525
15.5822 1504 0.0512436
15.5933 1496 0.0510346
15.604499999999998 1488 0.0508255
15.6156 1480 0.0506163
15.6268 1472 0.0504069
15.637899999999998 1464 0.0501974
15.649000000000001 1456 0.0499878
15.6601 1448 0.049778
15.671199999999999 1440 0.049568
15.682300000000001 1432 0.0493579
15.6934 1424 0.0491477
15.7045 1416 0.0489372
15.7155 1408 0.0487266
15.7266 1400 0.0485159
15.7376 1392 0.0483049
15.7487 1384 0.0480937
15.7597 1376 0.0478824
15.7707 1368 0.0476708
15.7817 1360 0.047459
15.7927 1352 0.047247
15.803700000000001 1344 0.0470349
15.814699999999998 1336 0.0468224
15.825700000000001 1328 0.0466098
15.836699999999999 1320 0.0463969
15.8476 1312 0.0461838
15.858600000000001 1304 0.0459704
15.869499999999999 1296 0.0457568
15.8804 1288 0.045543
15.891399999999999 1280 0.0453288
15.9023 1272 0.0451144
15.9132 1264 0.0448998
15.924100000000001 1256 0.0446848
15.934999999999999 1248 0.0444696
15.9459 1240 0.0442541
15.956700000000001 1232 0.0440383
15.9676 1224 0.0438222
15.9785 1216 0.0436058
15.9893 1208 0.0433891
16.0001 1200 0.0431721
16.011000000000003 1192 0.0429548
16.0218 1184 0.0427371
16.0326 1176 0.0425191
16.0434 1168 0.0423008
16.0542 1160 0.0420821
16.065 1152 0.0418631
16.0758 1144 0.0416437
16.0866 1136 0.041424
16.0973 1128 0.0412039
16.1081 1120 0.0409835
16.1189 1112 0.0407627
16.1296 1104 0.0405415
16.1403 1096 0.0403199
16.1511 1088 0.0400979
16.1618 1080 0.0398756
16.1725 1072 0.0396528
16.1832 1064 0.0394296
16.1939 1056 0.0392061
16.2046 1048 0.0389821
16.2153 1040 0.0387577
16.2259 1032 0.0385328
16.236600000000003 1024 0.0383075
16.247300000000003 1016 0.0380818
16.2579 1008 0.0378557
16.2686 1000 0.0376291
16.2792 992 0.0374021
16.2898 984 0.0371746
16.3005 976 0.0369466
16.3111 968 0.0367182
16.3217 960 0.0364893
16.3323 952 0.0362599
16.3429 944 0.03603
16.3535 936 0.0357996
16.363999999999997 928 0.0355688
16.3746 920 0.0353374
16.3852 912 0.0351056
16.395699999999998 904 0.0348732
16.406299999999998 896 0.0346403
16.416800000000002 888 0.0344069
16.4274 880 0.0341729
16.4379 872 0.0339385
16.4484 864 0.0337035
16.4589 856 0.0334679
16.4694 848 0.0332318
16.4799 840 0.0329951
16.4904 832 0.0327579
16.500899999999998 824 0.0325201
16.511400000000002 816 0.0322818
16.5219 808 0.0320429
16.532400000000003 800 0.0318034
16.5428 792 0.0315633
16.5533 784 0.0313226
16.5637 776 0.0310813
16.574199999999998 768 0.0308394
16.584600000000002 760 0.0305969
16.595 752 0.0303538
16.6055 744 0.0301101
16.6159 736 0
16.6263 728 0
16.636699999999998 720 0
16.647100000000002 712 0
16.6575 704 0
16.6679 696 0
16.6782 688 0
16.6886 680 0
16.699 672 0
16.7093 664 0
16.7197 656 0
16.73 648 0
16.7404 640 0
16.750700000000002 632 0
16.761000000000003 624 0
16.7714 616 0
16.7817 608 0
16.791999999999998 600 0
16.8023 592 0
16.8126 584 0
16.8229 576 0
16.833199999999998 568 0
16.8435 560 0
16.8538 552 0
16.863999999999997 544 0
16.874299999999998 536 0
16.8846 528 0
16.8948 520 0
16.905099999999997 512 0
16.9153 504 0
16.9255 496 0
16.9358 488 0
16.946 480 0
16.956200000000003 472 0
16.9664 464 0
16.9767 456 0
16.9869 448 0
16.9971 440 0
17.0073 432 0
17.017500000000002 424 0
17.0276 416 0
17.037799999999997 408 0
17.048 400 0
17.0582 392 0
17.0683 384 0
17.0785 376 0
17.0886 368 0
17.0988 360 0
17.1089 352 0
17.1191 344 0
17.1292 336 0
17.139400000000002 328 0
17.1495 320 0
17.1596 312 0
17.1697 304 0
17.1798 296 0
17.1899 288 0
17.2 280 0
17.2101 272 0
17.2202 264 0
17.2303 256 0
17.2404 248 0
17.2505 240 0
17.2606 232 0
17.270599999999998 224 0
17.2807 216 0
17.290799999999997 208 0
17.300800000000002 200 0
17.3109 192 0
17.3209 184 0
17.331 176 0
17.341 168 0
17.3511 160 0
17.3611 152 0
17.371100000000002 144 0
17.4206 136 0
17.4662 128 0
17.5118 120 0
17.5574 112 0
17.603 104 0
17.6486 96 0
17.694200000000002 88 0
17.7398 80 0
17.785400000000003 72 0
17.831 64 0
17.8766 56 0
17.9222 48 0
17.9678 40 0
18.013399999999997 32 0
18.059 24 0
18.104599999999998 16 0
18.1502 8 0
18.1958 0 0
18.241399999999995 8 0
18.287 16 0
18.332599999999996 24 0
18.3782 32 0
18.423799999999996 40 0
18.469399999999997 48 0
18.514999999999997 56 0
18.560599999999997 64 0
18.606199999999994 72 0
18.651799999999998 80 0
18.697399999999995 88 0
18.743 96 0
18.788599999999995 104 0
18.834199999999996 112 0
18.879799999999996 120 0
18.925399999999996 128 0
18.970999999999997 136 0
19.020499999999995 144 0
