9464
9471
9503
9513
9558
9569
9664
9463
9494
9504
9514
9560
9570
9661
9662
9462
9486
9495
9505
9556
9565
9573
9461
9502
9561
9566
9571
9645
9646
9647
9668
9460
9496
9512
9564
9568
9572
9659
9388
9395
9406
9421
9436
9382
9384
9392
9408
9412
9422
9654
9655
9656
9660
9665
9673
9674
9694
9695
9658
9663
9696
9586
9595
9613
9614
9622
9632
9633
9634
9672
9585
9589
9612
9617
9621
9631
9657
9588
9611
9616
9620
9629
9630
9639
9644
9685
9687
9587
9596
9615
9619
9624
9625
9626
9636
9637
9638
9648
9649
9650
9701
9702
9712
9713
9716
9717
9718
9723
9724
9727
9728
9732
9704
9705
9714
9715
9719
9720
9721
9725
9726
9729
9733
9734
9735