0.0000000000	21.7720601362
0.0002501251	21.7524971472
0.0005002501	21.7311718885
0.0007503752	21.7098467670
0.0010005003	21.6885218857
0.0012506253	21.6689596645
0.0015007504	21.6476276300
0.0017508754	21.6263110411
0.0020010005	21.6067572547
0.0022511256	21.5854221738
0.0025012506	21.5641024978
0.0027513757	21.5445494908
0.0030015008	21.5232188739
0.0032516258	21.5018964263
0.0035017509	21.4805742567
0.0037518759	21.4610181471
0.0040020010	21.4396930075
0.0042521261	21.4183793333
0.0045022511	21.3988205599
0.0047523762	21.3774998637
0.0050025013	21.3561798871
0.0052526263	21.3366260259
0.0055027514	21.3153028616
0.0057528764	21.2939831490
0.0060030015	21.2726728360
0.0062531266	21.2531160225
0.0065032516	21.2317981675
0.0067533767	21.2104734201
0.0070035018	21.1909260069
0.0072536268	21.1696094251
0.0075037519	21.1482966752
0.0077538769	21.1287466875
0.0080040020	21.1074286856
0.0082541271	21.0861027446
0.0085042521	21.0647950874
0.0087543772	21.0452499577
0.0090045023	21.0239292708
0.0092546273	21.0026179482
0.0095047524	20.9830776581
0.0097548774	20.9617550062
0.0100050025	20.9404513929
0.0102551276	20.9191406120
0.0105052526	20.8995922793
0.0107553777	20.8782827197
0.0110055028	20.8569736849
0.0112556278	20.8374268004
0.0115057529	20.8161194563
0.0117558779	20.7948195781
0.0120060030	20.7752817414
0.0122561281	20.7539685297
0.0125062531	20.7326573291
0.0127563782	20.7113507778
0.0130065033	20.6918159205
0.0132566283	20.6705136976
0.0135067534	20.6492071967
0.0137568784	20.6296743460
0.0140070035	20.6083985541
0.0142571286	20.5872888135
0.0145072536	20.5679389057
0.0147573787	20.5468277207
0.0150075038	20.5257267026
0.0152576288	20.5046246584
0.0155077539	20.4852699954
0.0157578789	20.4641661648
0.0160080040	20.4430724243
0.0162581291	20.4237166672
0.0165082541	20.4026242967
0.0167583792	20.3815274098
0.0170085043	20.3604293888
0.0172586293	20.3410763360
0.0175087544	20.3199794389
0.0177588794	20.2988916915
0.0180090045	20.2795410432
0.0182591296	20.2584462094
0.0185092546	20.2373570479
0.0187593797	20.2180111185
0.0190095048	20.1969186708
0.0192596298	20.1758237889
0.0195097549	20.1547319212
0.0197598799	20.1353960612
0.0200100050	20.1142988435
0.0202601301	20.0932209539
0.0205102551	20.0738751811
0.0207603802	20.0527866799
0.0210105053	20.0316989171
0.0212606303	20.0123620796
0.0215107554	19.9912682641
0.0217608804	19.9701818441
0.0220110055	19.9490997128
0.0222611306	19.9297611523
0.0225112556	19.9086757511
0.0227613807	19.8875953978
0.0230115058	19.8682580421
0.0232616308	19.8471739547
0.0235117559	19.8260944427
0.0237618809	19.8067661344
0.0240120060	19.7856759222
0.0242621311	19.7645898148
0.0245122561	19.7435084142
0.0247623812	19.7241810742
0.0250125063	19.7030955386
0.0252626313	19.6820150905
0.0255127564	19.6626842517
0.0257628814	19.6416039436
0.0260130065	19.6205254888
0.0262631316	19.5994458221
0.0265132566	19.5801162170
0.0267633817	19.5590378519
0.0270135068	19.5379596857
0.0272636318	19.5186321518
0.0275137569	19.4975479175
0.0277638819	19.4764818078
0.0280140070	19.4571515543
0.0282641321	19.4360761159
0.0285142571	19.4149934465
0.0287643822	19.3939225359
0.0290145073	19.3745940848
0.0292646323	19.3535199234
0.0295147574	19.3324511683
0.0297648824	19.3131210097
0.0300150075	19.2920489116
0.0302651326	19.2709839130
0.0305152576	19.2516636658
0.0307653827	19.2305857543
0.0310155078	19.2095151689
0.0312656328	19.1884464571
0.0315157579	19.1691272547
0.0317658829	19.1480592560
0.0320160080	19.1269892632
0.0322661331	19.1076736638
0.0325162581	19.0866008073
0.0327663832	19.0655475498
0.0330165083	19.0462276390
0.0332666333	19.0251614098
0.0335167584	19.0040925207
0.0337668834	18.9830348568
0.0340170085	18.9637167153
0.0342671336	18.9426608867
0.0345172586	18.9215995626
0.0347673837	18.9022828336
0.0350175088	18.8812196069
0.0352676338	18.8601591433
0.0355177589	18.8390928579
0.0357678839	18.8197685669
0.0360180090	18.7987006250
0.0362681341	18.7776394161
0.0365182591	18.7584060263
0.0367683842	18.7374400890
0.0370185093	18.7164847141
0.0372686343	18.6972668481
0.0375187594	18.6763070706
0.0377688844	18.6553527878
0.0380190095	18.6344058877
0.0382691346	18.6151957004
0.0385192596	18.5942540164
0.0387693847	18.5733218783
0.0390195098	18.5541201079
0.0392696348	18.5331781705
0.0395197599	18.5122572114
0.0397698849	18.4930664478
0.0400200100	18.4721395865
0.0402701351	18.4512177563
0.0405202601	18.4303050819
0.0407703852	18.4111334910
0.0410205103	18.3902172565
0.0412706353	18.3693158151
0.0415207604	18.3503707312
0.0417708854	18.3296115218
0.0420210105	18.3088745703
0.0422711356	18.2881259556
0.0425212606	18.2690988129
0.0427713857	18.2483462480
0.0430215108	18.2276178913
0.0432716358	18.2085977932
0.0435217609	18.1878536697
0.0437718859	18.1671161443
0.0440220110	18.1481046137
0.0442721361	18.1273717783
0.0445222611	18.1066380223
0.0447723862	18.0859012157
0.0450225113	18.0668953438
0.0452726363	18.0461606320
0.0455227614	18.0254397270
0.0457728864	18.0064334606
0.0460230115	17.9857069464
0.0462731366	17.9649860964
0.0465232616	17.9459832607
0.0467733867	17.9252558147
0.0470235118	17.9045387997
0.0472736368	17.8838215985
0.0475237619	17.8648224576
0.0477738869	17.8441011669
0.0480240120	17.8233867350
0.0482741371	17.8043978510
0.0485242621	17.7836742985
0.0487743872	17.7629645111
0.0490245123	17.7439677827
0.0492746373	17.7232622335
0.0495247624	17.7025469253
0.0497748874	17.6818398318
0.0500250125	17.6628475975
0.0502751376	17.6421437388
0.0505252626	17.6214393248
0.0507753877	17.6024533705
0.0510255128	17.5817412892
0.0512756378	17.5610409148
0.0515257629	17.5403426944
0.0517758879	17.5213552419
0.0520260130	17.5006441441
0.0522761381	17.4799451243
0.0525262631	17.4609686710
0.0527763882	17.4402668285
0.0530265133	17.4195679850
0.0532766383	17.4005868786
0.0535267634	17.3798866312
0.0537768884	17.3591918639
0.0540270135	17.3384950309
0.0542771386	17.3195186949
0.0545272636	17.2988184967
0.0547773887	17.2781319209
0.0550275138	17.2591505057
0.0552776388	17.2384627026
0.0555277639	17.2177742006
0.0557778889	17.1987965272
0.0560280140	17.1781050030
0.0562781391	17.1574162587
0.0565282641	17.1367306123
0.0567783892	17.1177593083
0.0570285143	17.0970710099
0.0572786393	17.0763876900
0.0575287644	17.0574199837
0.0577788894	17.0367336595
0.0580290145	17.0160526194
0.0582791396	16.9953637958
0.0585292646	16.9764021466
0.0587793897	16.9557186087
0.0590295148	16.9350403864
0.0592796398	16.9160720074
0.0595297649	16.8953913034
0.0597798899	16.8747185455
0.0600300150	16.8557558951
0.0602801401	16.8350730247
0.0605302651	16.8143987513
0.0607803902	16.7937211940
0.0610305153	16.7747613055
0.0612806403	16.7540856767
0.0615307654	16.7334143940
0.0617808904	16.7144569625
0.0620310155	16.6937799676
0.0622811406	16.6731151031
0.0625312656	16.6541602705
0.0627813907	16.6334864051
0.0630315158	16.6128173056
0.0632816408	16.5921562328
0.0635317659	16.5732005588
0.0637818909	16.5525347474
0.0640320160	16.5318769699
0.0642821411	16.5129256960
0.0645322661	16.4922638402
0.0647823912	16.4716047248
0.0650325163	16.4526604423
0.0652826413	16.4319985691
0.0655327664	16.4113403260
0.0657828914	16.3906914698
0.0660330165	16.3717520720
0.0662831416	16.3510960307
0.0665332666	16.3304470620
0.0667833917	16.3113982321
0.0670335168	16.2909263156
0.0672836418	16.2704776704
0.0675337669	16.2500491054
0.0677838919	16.2313348039
0.0680340170	16.2109555099
0.0682841421	16.1905893556
0.0685342671	16.1719083122
0.0687843922	16.1515059229
0.0690345173	16.1310711749
0.0692846423	16.1123270848
0.0695347674	16.0918911146
0.0697848924	16.0714608144
0.0700350175	16.0510203051
0.0702851426	16.0322790301
0.0705352676	16.0118442897
0.0707853927	15.9914170354
0.0710355178	15.9726808141
0.0712856428	15.9522462657
0.0715357679	15.9318220507
0.0717858929	15.9130820738
0.0720360180	15.8926539550
0.0722861431	15.8722228780
0.0725362681	15.8517968456
0.0727863932	15.8330666966
0.0730365183	15.8126386531
0.0732866433	15.7922178430
0.0735367684	15.7734890943
0.0737868934	15.7530593293
0.0740370185	15.7326412834
0.0742871436	15.7139136335
0.0745372686	15.6934858460
0.0747873937	15.6730617640
0.0750375188	15.6526423771
0.0752876438	15.6339207122
0.0755377689	15.6134985338
0.0757878939	15.5930805490
0.0760380190	15.5743533223
0.0762881441	15.5539328695
0.0765382691	15.5335202392
0.0767883942	15.5131043067
0.0770385193	15.4943785352
0.0772886443	15.4739560575
0.0775387694	15.4535452066
0.0777888944	15.4348283244
0.0780390195	15.4144075147
0.0782891446	15.3939939243
0.0785392696	15.3752743842
0.0787893947	15.3548542693
0.0790395198	15.3344422867
0.0792896448	15.3140305819
0.0795397699	15.2953122489
0.0797898949	15.2748971026
0.0800400200	15.2544905558
0.0802901451	15.2357693255
0.0805402701	15.2153552705
0.0807903952	15.1949456629
0.0810405203	15.1762299025
0.0812906453	15.1558170499
0.0815407704	15.1354047711
0.0817908954	15.1150003649
0.0820410205	15.0962828798
0.0822911456	15.0758718436
0.0825412706	15.0554690992
0.0827913957	15.0367521503
0.0830415208	15.0163433974
0.0832916458	14.9959420990
0.0835417709	14.9755337459
0.0837918959	14.9568222853
0.0840420210	14.9364167352
0.0842921461	14.9160133918
0.0845422711	14.8973038529
0.0847923962	14.8768954646
0.0850425213	14.8564988401
0.0852926463	14.8377915078
0.0855427714	14.8173854341
0.0857928964	14.7969947219
0.0860430215	14.7765925570
0.0862931466	14.7578841640
0.0865432716	14.7374841841
0.0867933967	14.7170889522
0.0870435218	14.6983836626
0.0872936468	14.6779905529
0.0875437719	14.6575964015
0.0877938969	14.6388948859
0.0880440220	14.6185018945
0.0882941471	14.5981079105
0.0885442721	14.5777209237
0.0887943972	14.5590202266
0.0890445223	14.5386312897
0.0892946473	14.5182446711
0.0895447724	14.4995493397
0.0897948974	14.4791626148
0.0900450225	14.4588865579
0.0902951476	14.4403921790
0.0905452726	14.4202269826
0.0907953977	14.4000660375
0.0910455228	14.3799042902
0.0912956478	14.3614178824
0.0915457729	14.3412579756
0.0917958979	14.3210985806
0.0920460230	14.3026158976
0.0922961481	14.2824592514
0.0925462731	14.2623068217
0.0927963982	14.2421519910
0.0930465233	14.2236694384
0.0932966483	14.2035185477
0.0935467734	14.1833709879
0.0937968984	14.1648902724
0.0940470235	14.1447407718
0.0942971486	14.1245956212
0.0945472736	14.1061195340
0.0947973987	14.0859720926
0.0950475238	14.0658229904
0.0952976488	14.0456803049
0.0955477739	14.0272087370
0.0957978989	14.0064270041
0.0960480240	13.9862959202
0.0962981491	13.9678238936
0.0965482741	13.9476810364
0.0967983992	13.9275525082
0.0970485243	13.9090882029
0.0972986493	13.8889507106
0.0975487744	13.8688175111
0.0977988994	13.8486906327
0.0980490245	13.8302323303
0.0982991496	13.8101039912
0.0985492746	13.7899773280
0.0987993997	13.7715226504
0.0990495248	13.7513988834
0.0992996498	13.7312803758
0.0995497749	13.7128300799
0.0997998999	13.6927065458
0.1000500250	13.6725927798
0.1003001501	13.6524805766
0.1005502751	13.6340316006
0.1008004002	13.6139193475
0.1010505253	13.5938145962
0.1013006503	13.5753720986
0.1015507754	13.5552625216
0.1018009005	13.5351604457
0.1020510255	13.5150566407
0.1023011506	13.4966219920
0.1025512756	13.4765188348
0.1028014007	13.4568290052
0.1030515258	13.4384807434
0.1033016508	13.4184707842
0.1035517759	13.3984735174
0.1038019010	13.3801312868
0.1040520260	13.3601290968
0.1043021511	13.3401254992
0.1045522761	13.3201357153
0.1048024012	13.3017953844
0.1050525263	13.2817949915
0.1053026513	13.2618023467
0.1055527764	13.2434648269
0.1058029015	13.2234736091
0.1060530265	13.2034857289
0.1063031516	13.1851495089
0.1065532766	13.1651488285
0.1068034017	13.1451489379
0.1070535268	13.1251548568
0.1073036518	13.1068155239
0.1075537769	13.0868147042
0.1078039020	13.0668243191
0.1080540270	13.0484893591
0.1083041521	13.0285039725
0.1085542771	13.0085153131
0.1088044022	12.9885350480
0.1090545273	12.9702139456
0.1093046523	12.9502426421
0.1095547774	12.9302774065
0.1098049025	12.9119694324
0.1100550275	12.8920134295
0.1103051526	12.8720671658
0.1105552776	12.8537767730
0.1108054027	12.8338300327
0.1110555278	12.8138986616
0.1113056528	12.7940761470
0.1115557779	12.7759547168
0.1118059030	12.7561936711
0.1120560280	12.7364457612
0.1123061531	12.7183336555
0.1125562781	12.6985854027
0.1128064032	12.6788401495
0.1130565283	12.6607355062
0.1133066533	12.6409908241
0.1135567784	12.6212529737
0.1138069035	12.6015171070
0.1140570285	12.5834198734
0.1143071536	12.5636885081
0.1145572786	12.5439624115
0.1148074037	12.5258713658
0.1150575288	12.5061379093
0.1153076538	12.4864178064
0.1155577789	12.4683318950
0.1158079040	12.4486112570
0.1160580290	12.4288888579
0.1163081541	12.4091759700
0.1165582791	12.3910920689
0.1168084042	12.3713784388
0.1170585293	12.3516666686
0.1173086543	12.3335944693
0.1175587794	12.3138813663
0.1178089045	12.2941767940
0.1180590295	12.2744679923
0.1183091546	12.2563942933
0.1185592796	12.2366900419
0.1188094047	12.2169908773
0.1190595298	12.1989236803
0.1193096548	12.1792214671
0.1195597799	12.1595256949
0.1198099050	12.1414618740
0.1200600300	12.1217645521
0.1203101551	12.1020650167
0.1205602801	12.0823735254
0.1208104052	12.0643140972
0.1210605303	12.0446249038
0.1213106553	12.0249336007
0.1215607804	12.0068800582
0.1218109055	11.9871878550
0.1220610305	11.9675118843
0.1223111556	11.9494551907
0.1225612806	11.9297707620
0.1228114057	11.9100827249
0.1230615308	11.8904077394
0.1233116558	11.8723598169
0.1235617809	11.8526795973
0.1238119060	11.8330048355
0.1240620310	11.8149601336
0.1243121561	11.7952836064
0.1245622811	11.7756160725
0.1248124062	11.7559371150
0.1250625313	11.7378969592
0.1253126563	11.7182251990
0.1255627814	11.6985615682
0.1258129065	11.6805238549
0.1260630315	11.6608525272
0.1263131566	11.6411920296
0.1265632816	11.6231574851
0.1268134067	11.6034932987
0.1270635318	11.5838295908
0.1273136568	11.5641719068
0.1275637819	11.5461426658
0.1278139070	11.5264832633
0.1280640320	11.5068305421
0.1283141571	11.4888055777
0.1285642821	11.4691507164
0.1288144072	11.4495062100
0.1290645323	11.4314828493
0.1293146573	11.4118346768
0.1295647824	11.3921241765
0.1298149075	11.3724810545
0.1300650325	11.3544712234
0.1303151576	11.3348301109
0.1305652826	11.3151962717
0.1308154077	11.2971901366
0.1310655328	11.2773891361
0.1313156578	11.2579471347
0.1315657829	11.2401380197
0.1318159080	11.2207502791
0.1320660330	11.2014013378
0.1323161581	11.1820820580
0.1325662831	11.1643623969
0.1328164082	11.1450053580
0.1330665333	11.1256132397
0.1333166583	11.1078279986
0.1335667834	11.0884354836
0.1338169085	11.0690503676
0.1340670335	11.0496614652
0.1343171586	11.0318831809
0.1345672836	11.0124942932
0.1348174087	10.9931181543
0.1350675338	10.9753418810
0.1353176588	10.9559565254
0.1355677839	10.9365805373
0.1358179090	10.9188086406
0.1360680340	10.8994311167
0.1363181591	10.8800579962
0.1365682841	10.8606862386
0.1368184092	10.8429154864
0.1370685343	10.8235383014
0.1373186593	10.8041742833
0.1375687844	10.7864100346
0.1378189095	10.7670364247
0.1380690345	10.7476713006
0.1383191596	10.7299139153
0.1385692846	10.7105398643
0.1388194097	10.6911735493
0.1390695348	10.6718127693
0.1393196598	10.6540551363
0.1395697849	10.6346958950
0.1398199100	10.6153335951
0.1400700350	10.5975784915
0.1403201601	10.5782180379
0.1405702851	10.5588584276
0.1408204102	10.5411091865
0.1410705353	10.5217510210
0.1413206603	10.5023858893
0.1415707854	10.4830368411
0.1418209105	10.4652867373
0.1420710355	10.4459315132
0.1423211606	10.4265812204
0.1425712856	10.4088337207
0.1428214107	10.3894809245
0.1430715358	10.3701332575
0.1433216608	10.3507792666
0.1435717859	10.3330350245
0.1438219110	10.3136825861
0.1440720360	10.2943422853
0.1443221611	10.2766018419
0.1445722861	10.2572561261
0.1448224112	10.2379158037
0.1450725363	10.2201743750
0.1453226613	10.2008322378
0.1455727864	10.1814924072
0.1458229115	10.1621530126
0.1460730365	10.1444243753
0.1463231616	10.1250831071
0.1465732866	10.1057524207
0.1468234117	10.0880228678
0.1470735368	10.0686904459
0.1473236618	10.0493650249
0.1475737869	10.0316380719
0.1478239120	10.0123115195
0.1480740370	9.9929806919
0.1483241621	9.9736596032
0.1485742871	9.9559409602
0.1488244122	9.9366198748
0.1490745373	9.9173056012
0.1493246623	9.8996032465
0.1495747874	9.8806389384
0.1498249125	9.8616825956
0.1500750375	9.8427295976
0.1503251626	9.8253420346
0.1505752876	9.8063883713
0.1508254127	9.7874411421
0.1510755378	9.7700654436
0.1513256628	9.7511194086
0.1515757879	9.7321791461
0.1518259130	9.7148102589
0.1520760380	9.6958711791
0.1523261631	9.6769381135
0.1525762881	9.6579993033
0.1528264132	9.6406424242
0.1530765383	9.6217154276
0.1533266633	9.6027830145
0.1535767884	9.5854283134
0.1538269135	9.5665036453
0.1540770385	9.5475848921
0.1543271636	9.5302426886
0.1545772886	9.5113163781
0.1548274137	9.4923993609
0.1550775388	9.4734880983
0.1553276638	9.4561529104
0.1555777889	9.4372331220
0.1558279140	9.4183273652
0.1560780390	9.4009966929
0.1563281641	9.3820831647
0.1565782891	9.3631811155
0.1568284142	9.3458548370
0.1570785393	9.3273317197
0.1573286643	9.3084284455
0.1575787894	9.2895376304
0.1578289145	9.2722060546
0.1580790395	9.2533064107
0.1583291646	9.2344191432
0.1585792896	9.2170904494
0.1588294147	9.1981951232
0.1590795398	9.1793073664
0.1593296648	9.1604196603
0.1595797899	9.1431012904
0.1598299150	9.1242061765
0.1600800400	9.1053264348
0.1603301651	9.0880073806
0.1605802901	9.0691247493
0.1608304152	9.0502467589
0.1610805403	9.0329316359
0.1613306653	9.0140537489
0.1615807904	8.9951774449
0.1618309155	8.9763066426
0.1620810405	8.9589902977
0.1623311656	8.9401101712
0.1625812906	8.9212305646
0.1628314157	8.9039098575
0.1630815408	8.8850317223
0.1633316658	8.8661556160
0.1635817909	8.8488495215
0.1638319160	8.8299764484
0.1640820410	8.8111168881
0.1643321661	8.7922682559
0.1645822911	8.7749845520
0.1648324162	8.7561464725
0.1650825413	8.7373158998
0.1653326663	8.7200533326
0.1655827914	8.7012337338
0.1658329165	8.6824303347
0.1660830415	8.6654215198
0.1663331666	8.6468038266
0.1665832916	8.6281937815
0.1668334167	8.6095949758
0.1670835418	8.5925317208
0.1673336668	8.5739324681
0.1675837919	8.5553394728
0.1678339170	8.5382922522
0.1680840420	8.5196945061
0.1683341671	8.5011185480
0.1685842921	8.4825304985
0.1688344172	8.4654897038
0.1690845423	8.4469066885
0.1693346673	8.4283339129
0.1695847924	8.4113034862
0.1698349175	8.3927350244
0.1700850425	8.3741689812
0.1703351676	8.3571370918
0.1705852926	8.3385719737
0.1708354177	8.3200047284
0.1710855428	8.3014503130
0.1713356678	8.2844302370
0.1715857929	8.2658718255
0.1718359180	8.2473171918
0.1720860430	8.2303044105
0.1723361681	8.2117477079
0.1725862931	8.1932048195
0.1728364182	8.1761940643
0.1730865433	8.1576485516
0.1733366683	8.1390992973
0.1735867934	8.1205565090
0.1738369185	8.1035566449
0.1740870435	8.0850163905
0.1743371686	8.0664815350
0.1745872936	8.0494827970
0.1748374187	8.0309440124
0.1750875438	8.0124187124
0.1753376688	7.9938862032
0.1755877939	7.9768900434
0.1758379190	7.9583620875
0.1760880440	7.9398392501
0.1763381691	7.9228550880
0.1765882941	7.9043235284
0.1768384192	7.8858093671
0.1770885443	7.8688294856
0.1773386693	7.8503064396
0.1775887944	7.8317889958
0.1778389195	7.8132737897
0.1780890445	7.7962999050
0.1783391696	7.7777882814
0.1785892946	7.7592823049
0.1788394197	7.7423072272
0.1790895448	7.7238010891
0.1793396698	7.7053062423
0.1795897949	7.6883409740
0.1798399200	7.6698399327
0.1800900450	7.6513435568
0.1803401701	7.6328553453
0.1805902951	7.6158987034
0.1808404202	7.5974135372
0.1810905453	7.5789319560
0.1813406703	7.5619129054
0.1815907954	7.5436555216
0.1818409205	7.5254452331
0.1820910455	7.5087891448
0.1823411706	7.4906493764
0.1825912956	7.4724891728
0.1828414207	7.4542757714
0.1830915458	7.4375714996
0.1833416708	7.4188876443
0.1835917959	7.4013461072
0.1838419210	7.3847988760
0.1840920460	7.3667551450
0.1843421711	7.3487142076
0.1845922961	7.3306689414
0.1848424212	7.3141261154
0.1850925463	7.2960878959
0.1853426713	7.2780562886
0.1855927964	7.2615158300
0.1858429215	7.2434798669
0.1860930465	7.2254515940
0.1863431716	7.2089194344
0.1865932966	7.1908865530
0.1868434217	7.1728551820
0.1870935468	7.1548295127
0.1873436718	7.1383007757
0.1875937969	7.1202737355
0.1878439220	7.1022550631
0.1880940470	7.0857253821
0.1883441721	7.0677016792
0.1885942971	7.0496892242
0.1888444222	7.0331628710
0.1890945473	7.0151375959
0.1893446723	6.9971201696
0.1895947974	6.9791078113
0.1898449225	6.9625811542
0.1900950475	6.9445668581
0.1903451726	6.9265534742
0.1905952976	6.9100375492
0.1908454227	6.8920261069
0.1910955478	6.8740163962
0.1913456728	6.8575000014
0.1915957979	6.8394928701
0.1918459230	6.8214835734
0.1920960480	6.8034789920
0.1923461731	6.7869713174
0.1925962981	6.7689701525
0.1928464232	6.7509705601
0.1930965483	6.7344637328
0.1933466733	6.7164675634
0.1935967984	6.6984737332
0.1938469235	6.6804769521
0.1940970485	6.6639778101
0.1943471736	6.6459848615
0.1945972986	6.6280061610
0.1948474237	6.6115078715
0.1950975488	6.5935255696
0.1953476738	6.5755523345
0.1955977989	6.5593153677
0.1958479240	6.5416047023
0.1960980490	6.5239027590
0.1963481741	6.5062039538
0.1965982991	6.4899695870
0.1968484242	6.4722751930
0.1970985493	6.4545826199
0.1973486743	6.4383588570
0.1975987994	6.4206671049
0.1978489245	6.4029813592
0.1980990495	6.3867624646
0.1983491746	6.3690764399
0.1985992996	6.3513927716
0.1988494247	6.3337181404
0.1990995498	6.3175058556
0.1993496748	6.2998229221
0.1995997999	6.2821526524
0.1998499250	6.2659444989
0.2001000500	6.2482656792
0.2003501751	6.2306002128
0.2006003002	6.2129276754
0.2008504252	6.1967236726
0.2011005503	6.1790540278
0.2013506753	6.1613895186
0.2016008004	6.1451933587
0.2018509255	6.1275282047
0.2021010505	6.1098679855
0.2023511756	6.0936685834
0.2026013007	6.0760112640
0.2028514257	6.0583572419
0.2031015508	6.0406963725
0.2033516758	6.0245110633
0.2036018009	6.0068550222
0.2038519260	5.9892107288
0.2041020510	5.9730304552
0.2043521761	5.9553801570
0.2046023012	5.9377412989
0.2048524262	5.9215633695
0.2051025513	5.9039280727
0.2053526763	5.8862847244
0.2056028014	5.8686407366
0.2058529265	5.8524583762
0.2061030515	5.8348120866
0.2063531766	5.8171773607
0.2066033017	5.8010048760
0.2068534267	5.7829812180
0.2071035518	5.7653762045
0.2073536768	5.7492405751
0.2076038019	5.7316571558
0.2078539270	5.7140873673
0.2081040520	5.6965380915
0.2083541771	5.6805978775
0.2086043022	5.6632706169
0.2088544272	5.6459573269
0.2091045523	5.6300864655
0.2093546773	5.6127872789
0.2096048024	5.5957515864
0.2098549275	5.5786014010
0.2101050525	5.5628769564
0.2103551776	5.5457363345
0.2106053027	5.5286034287
0.2108554277	5.5128925830
0.2111055528	5.4957650257
0.2113556778	5.4786448284
0.2116058029	5.4629462795
0.2118559280	5.4458287078
0.2121060530	5.4287098395
0.2123561781	5.4116067969
0.2126063032	5.3959184718
0.2128564282	5.3788133814
0.2131065533	5.3617129171
0.2133566783	5.3460351308
0.2136068034	5.3289390955
0.2138569285	5.3118502330
0.2141070535	5.2961763568
0.2143571786	5.2790891908
0.2146073037	5.2620040126
0.2148574287	5.2449295609
0.2151075538	5.2292691675
0.2153576788	5.2121906240
0.2156078039	5.1951225831
0.2158579290	5.1794689026
0.2161080540	5.1624006252
0.2163581791	5.1453452208
0.2166083042	5.1282806407
0.2168584292	5.1126381176
0.2171085543	5.0955828513
0.2173586793	5.0785305002
0.2176088044	5.0628956561
0.2178589295	5.0458450525
0.2181090545	5.0288061711
0.2183591796	5.0131838957
0.2186093047	4.9961448856
0.2188594297	4.9791180425
0.2191095548	4.9620849966
0.2193596798	4.9464740354
0.2196098049	4.9294552081
0.2198599300	4.9124432358
0.2201100550	4.8968435693
0.2203601801	4.8798861547
0.2206103052	4.8631652073
0.2208604302	4.8478919501
0.2211105553	4.8312511235
0.2213606803	4.8145171538
0.2216108054	4.7978059117
0.2218609305	4.7824840400
0.2221110555	4.7657784310
0.2223611806	4.7490764578
0.2226113057	4.7337660031
0.2228614307	4.7170653081
0.2231115558	4.7003733005
0.2233616808	4.6850718222
0.2236118059	4.6683792058
0.2238619310	4.6516948543
0.2241120560	4.6350150915
0.2243621811	4.6197209049
0.2246123062	4.6030421545
0.2248624312	4.5863706944
0.2251125563	4.5710805412
0.2253626813	4.5544115921
0.2256128064	4.5377446785
0.2258629315	4.5210762084
0.2261130565	4.5057984173
0.2263631816	4.4891338953
0.2266133067	4.4724770726
0.2268634317	4.4572029629
0.2271135568	4.4405491764
0.2273636818	4.4239008397
0.2276138069	4.4086276250
0.2278639320	4.3919765758
0.2281140570	4.3753365122
0.2283641821	4.3586947799
0.2286143072	4.3434336837
0.2288644322	4.3267976095
0.2291145573	4.3101694659
0.2293646823	4.2949168564
0.2296148074	4.2782903088
0.2298649325	4.2616716042
0.2301150575	4.2462381201
0.2303651826	4.2298624228
0.2306153077	4.2134053757
0.2308654327	4.1969548645
0.2311155578	4.1819148756
0.2313656828	4.1657677690
0.2316158079	4.1496326260
0.2318659330	4.1348399327
0.2321160580	4.1187120621
0.2323661831	4.1025945374
0.2326163082	4.0878180203
0.2328664332	4.0717069691
0.2331165583	4.0556006014
0.2333666833	4.0395084698
0.2336168084	4.0247510845
0.2338669335	4.0089118583
0.2341170585	3.9928312938
0.2343671836	3.9780846574
0.2346173087	3.9620057282
0.2348674337	3.9459254312
0.2351175588	3.9298508992
0.2353676838	3.9151087935
0.2356178089	3.8990382956
0.2358679340	3.8829747118
0.2361180590	3.8682395359
0.2363681841	3.8521765433
0.2366183092	3.8361174459
0.2368684342	3.8213915618
0.2371185593	3.8053349032
0.2373686843	3.7892760212
0.2376188094	3.7732294391
0.2378689345	3.7585183541
0.2381190595	3.7424727595
0.2383691846	3.7264384749
0.2386193097	3.7117296455
0.2388694347	3.6956874091
0.2391195598	3.6796467014
0.2393696848	3.6649355200
0.2396198099	3.6488980665
0.2398699350	3.6328694925
0.2401200600	3.6168638547
0.2403701851	3.6021975945
0.2406203102	3.5862140687
0.2408704352	3.5702525985
0.2411205603	3.5557620394
0.2413706853	3.5400462118
0.2416208104	3.5243375241
0.2418709355	3.5086371459
0.2421210605	3.4942479632
0.2423711856	3.4785564757
0.2426213107	3.4628788627
0.2428714357	3.4485063578
0.2431215608	3.4328357901
0.2433716858	3.4171706590
0.2436218109	3.4028121327
0.2438719360	3.3871565977
0.2441220610	3.3715080788
0.2443721861	3.3558588069
0.2446223112	3.3415165281
0.2448724362	3.3258773491
0.2451225613	3.3102443444
0.2453726863	3.2959136603
0.2456228114	3.2802843070
0.2458729365	3.2646649160
0.2461230615	3.2503406473
0.2463731866	3.2347264641
0.2466233117	3.2192100445
0.2468734367	3.2038225955
0.2471235618	3.1897138512
0.2473736868	3.1743339834
0.2476238119	3.1589535263
0.2478739370	3.1448541612
0.2481240620	3.1294866895
0.2483741871	3.1141188821
0.2486243122	3.1000311814
0.2488744372	3.0846718837
0.2491245623	3.0693149822
0.2493746873	3.0539734446
0.2496248124	3.0399013643
0.2498749375	3.0245678682
0.2501250625	3.0092386422
0.2503751876	2.9952590988
0.2506253127	2.9802615410
0.2508754377	2.9653317268
0.2511255628	2.9503606930
0.2513756878	2.9365995836
0.2516258129	2.9215932184
0.2518759380	2.9065982728
0.2521260630	2.8928482288
0.2523761881	2.8778591549
0.2526263132	2.8628705145
0.2528764382	2.8491300308
0.2531265633	2.8341513835
0.2533766883	2.8191701571
0.2536268134	2.8041996347
0.2538769385	2.7904679170
0.2541270635	2.7755008531
0.2543771886	2.7605326814
0.2546273137	2.7468135544
0.2548774387	2.7318513372
0.2551275638	2.7168894960
0.2553776888	2.7031724247
0.2556278139	2.6882173319
0.2558779390	2.6732630700
0.2561280640	2.6583176659
0.2563781891	2.6446110475
0.2566283142	2.6296675925
0.2568784392	2.6147271012
0.2571285643	2.6010310113
0.2573786893	2.5860995158
0.2576288144	2.5711711711
0.2578789395	2.5574830160
0.2581290645	2.5425648477
0.2583791896	2.5276479658
0.2586293147	2.5125819575
0.2588794397	2.4992203791
0.2591295648	2.4846604220
0.2593796898	2.4701179101
0.2596298149	2.4567932937
0.2598799400	2.4422746074
0.2601300650	2.4280537010
0.2603801901	2.4137274385
0.2606303152	2.4005936164
0.2608804402	2.3862773614
0.2611305653	2.3719665473
0.2613806903	2.3588448759
0.2616308154	2.3445389764
0.2618809405	2.3302413246
0.2621310655	2.3171322399
0.2623811906	2.3028407520
0.2626313157	2.2885483231
0.2628814407	2.2742687035
0.2631315658	2.2611780090
0.2633816908	2.2469042868
0.2636318159	2.2326399205
0.2638819410	2.2195611788
0.2641320660	2.2053074905
0.2643821911	2.1910594290
0.2646323162	2.1779839851
0.2648824412	2.1637277048
0.2651325663	2.1494802485
0.2653826913	2.1352523160
0.2656328164	2.1222290829
0.2658829415	2.1080429802
0.2661330665	2.0938578707
0.2663831916	2.0811495960
0.2666333167	2.0672653054
0.2668834417	2.0533949068
0.2671335668	2.0395347092
0.2673836918	2.0268313938
0.2676338169	2.0129876316
0.2678839420	1.9991605098
0.2681340670	1.9864860438
0.2683841921	1.9726678423
0.2686343172	1.9588619958
0.2688844422	1.9462078353
0.2691345673	1.9324172935
0.2693846923	1.9186328174
0.2696348174	1.9048538786
0.2698849425	1.8922239989
0.2701350675	1.8784616162
0.2703851926	1.8647082355
0.2706353177	1.8520973015
0.2708854427	1.8383541176
0.2711355678	1.8246879063
0.2713856928	1.8122743036
0.2716358179	1.7987521815
0.2718859430	1.7852346605
0.2721360680	1.7717415185
0.2723861931	1.7593768584
0.2726363182	1.7459037466
0.2728864432	1.7324457649
0.2731365683	1.7202094293
0.2733866933	1.7070747245
0.2736368184	1.6940528776
0.2738869435	1.6820759558
0.2741370685	1.6689836473
0.2743871936	1.6558976497
0.2746373187	1.6428224624
0.2748874437	1.6308349330
0.2751375688	1.6177666119
0.2753876938	1.6047071129
0.2756378189	1.5927338216
0.2758879440	1.5796822956
0.2761380690	1.5666326733
0.2763881941	1.5535876263
0.2766383192	1.5416316311
0.2768884442	1.5285918105
0.2771385693	1.5155635181
0.2773886943	1.5036144109
0.2776388194	1.4905890631
0.2778889445	1.4775741474
0.2781390695	1.4656392148
0.2783891946	1.4526305921
0.2786393197	1.4396272572
0.2788894447	1.4266341298
0.2791395698	1.4147234819
0.2793896948	1.4017382550
0.2796398199	1.3890247917
0.2798899450	1.3774501118
0.2801400700	1.3648853197
0.2803901951	1.3525488099
0.2806403202	1.3412426918
0.2808904452	1.3289166016
0.2811405703	1.3165973652
0.2813906953	1.3042868031
0.2816408204	1.2929976582
0.2818909455	1.2806953181
0.2821410705	1.2683973357
0.2823911956	1.2571210513
0.2826413207	1.2448359289
0.2828914457	1.2325544091
0.2831415708	1.2212998221
0.2833916958	1.2090274675
0.2836418209	1.1967676933
0.2838919460	1.1845118015
0.2841420710	1.1732651900
0.2843921961	1.1610081400
0.2846423212	1.1487770349
0.2848924462	1.1375835400
0.2851425713	1.1254148511
0.2853926963	1.1135376593
0.2856428214	1.1016682339
0.2858929465	1.0908000197
0.2861430715	1.0789617309
0.2863931966	1.0671387800
0.2866433217	1.0562987972
0.2868934467	1.0444902941
0.2871435718	1.0325147258
0.2873936968	1.0217283203
0.2876438219	1.0099918947
0.2878939470	0.9984893955
0.2881440720	0.9870042631
0.2883941971	0.9764778029
0.2886443222	0.9650076078
0.2888944472	0.9535514392
0.2891445723	0.9430523847
0.2893946973	0.9316121989
0.2896448224	0.9201879120
0.2898949475	0.9097205981
0.2901450725	0.8983193252
0.2903951976	0.8868867491
0.2906453227	0.8758649245
0.2908954477	0.8658351614
0.2911455728	0.8548297112
0.2913956978	0.8438175452
0.2916458229	0.8337460963
0.2918959480	0.8227766593
0.2921460730	0.8118176037
0.2923961981	0.8008694418
0.2926463232	0.7908350408
0.2928964482	0.7799005983
0.2931465733	0.7689806178
0.2933966983	0.7589738425
0.2936468234	0.7480679445
0.2938969485	0.7371741697
0.2941470735	0.7271933108
0.2943971986	0.7164536292
0.2946473237	0.7058289560
0.2948974487	0.6952248237
0.2951475738	0.6856324542
0.2953976988	0.6755525876
0.2956478239	0.6653796486
0.2958979490	0.6560572647
0.2961480740	0.6459031273
0.2963981991	0.6357603605
0.2966483242	0.6264642138
0.2968984492	0.6163370042
0.2971485743	0.6062142741
0.2973986993	0.5961055394
0.2976488244	0.5868414186
0.2978989495	0.5767485570
0.2981490745	0.5666711639
0.2983991996	0.5574301795
0.2986493247	0.5473527469
0.2988994497	0.5373077110
0.2991495748	0.5281371634
0.2993996998	0.5183699802
0.2996498249	0.5088121470
0.2998999500	0.4994880097
0.3001500750	0.4909534345
0.3004002001	0.4816594663
0.3006503252	0.4723882793
0.3009004502	0.4638922882
0.3011505753	0.4546431171
0.3014007004	0.4454094493
0.3016508254	0.4361851492
0.3019009505	0.4277413256
0.3021510755	0.4185397306
0.3024012006	0.4093597934
0.3026513257	0.4009499730
0.3029014507	0.3917999147
0.3031515758	0.3828268346
0.3034017009	0.3748599898
0.3036518259	0.3659906620
0.3039019510	0.3572893811
0.3041520760	0.3487605605
0.3044022011	0.3410688973
0.3046523262	0.3326887754
0.3049024512	0.3243261574
0.3051525763	0.3166682424
0.3054027014	0.3083275052
0.3056528264	0.3000059217
0.3059029515	0.2923915793
0.3061530765	0.2841004696
0.3064032016	0.2759378934
0.3066533267	0.2680799461
0.3069034517	0.2608931083
0.3071535768	0.2530750777
0.3074037019	0.2452843230
0.3076538269	0.2381471293
0.3079039520	0.2303830197
0.3081540770	0.2229004301
0.3084042021	0.2154580150
0.3086543272	0.2087350769
0.3089044522	0.2013361629
0.3091545773	0.1940044163
0.3094047024	0.1875587634
0.3096548274	0.1806122158
0.3099049525	0.1736965960
0.3101550775	0.1673781500
0.3104052026	0.1605088823
0.3106553277	0.1536636959
0.3109054527	0.1468381254
0.3111555778	0.1408088787
0.3114057029	0.1343652770
0.3116558279	0.1279522710
0.3119059530	0.1222976159
0.3121560780	0.1163353283
0.3124062031	0.1103730786
0.3126563282	0.1049249473
0.3129064532	0.0989979545
0.3131565783	0.0930883134
0.3134067034	0.0871310751
0.3136568284	0.0819595891
0.3139069535	0.0764758646
0.3141570785	0.0714067037
0.3144072036	0.0667924642
0.3146573287	0.0617862107
0.3149074537	0.0568063820
0.3151575788	0.0522792993
0.3154077039	0.0473730743
0.3156578289	0.0426225535
0.3159079540	0.0385421404
0.3161580790	0.0348313987
0.3164082041	0.0308317437
0.3166583292	0.0268713158
0.3169084542	0.0232799598
0.3171585793	0.0195099417
0.3174087044	0.0164584598
0.3176588294	0.0134339947
0.3179089545	0.0106906367
0.3181590795	0.0070720880
0.3184092046	0.0042081273
0.3186593297	0.0014800676
0.3189094547	0.0000000000
0.3191595798	0.0000000000
0.3194097049	0.0000000000
0.3196598299	0.0000000000
0.3199099550	0.0000000000
0.3201600800	0.0000000000
0.3204102051	0.0000000000
0.3206603302	0.0000000000
0.3209104552	0.0000000000
0.3211605803	0.0000000000
0.3214107054	0.0000000000
0.3216608304	0.0000000000
0.3219109555	0.0000000000
0.3221610805	0.0000000000
0.3224112056	0.0000000000
0.3226613307	0.0000000000
0.3229114557	0.0000000000
0.3231615808	0.0000000000
0.3234117059	0.0000000000
0.3236618309	0.0000000000
0.3239119560	0.0000000000
0.3241620810	0.0000000000
0.3244122061	0.0000000000
0.3246623312	0.0000000000
0.3249124562	0.0000000000
0.3251625813	0.0000000000
0.3254127064	0.0000000000
0.3256628314	0.0000000000
0.3259129565	0.0000000000
0.3261630815	0.0000000000
0.3264132066	0.0000000000
0.3266633317	0.0000000000
0.3269134567	0.0000000000
0.3271635818	0.0000000000
0.3274137069	0.0000000000
0.3276638319	0.0000000000
0.3279139570	0.0000000000
0.3281640820	0.0000000000
0.3284142071	0.0000000000
0.3286643322	0.0000000000
0.3289144572	0.0000000000
0.3291645823	0.0000000000
0.3294147074	0.0000000000
0.3296648324	0.0000000000
0.3299149575	0.0000000000
0.3301650825	0.0000000000
0.3304152076	0.0000000000
0.3306653327	0.0000000000
0.3309154577	0.0000000000
0.3311655828	0.0000000000
0.3314157079	0.0000000000
0.3316658329	0.0000000000
0.3319159580	0.0000000000
0.3321660830	0.0000000000
0.3324162081	0.0000000000
0.3326663332	0.0000000000
0.3329164582	0.0000000000
0.3331665833	0.0000000000
0.3334167084	0.0000000000
0.3336668334	0.0000000000
0.3339169585	0.0000000000
0.3341670835	0.0000000000
0.3344172086	0.0000000000
0.3346673337	0.0000000000
0.3349174587	0.0000000000
0.3351675838	0.0000000000
0.3354177089	0.0000000000
0.3356678339	0.0000000000
0.3359179590	0.0000000000
0.3361680840	0.0000000000
0.3364182091	0.0000000000
0.3366683342	0.0000000000
0.3369184592	0.0000000000
0.3371685843	0.0000000000
0.3374187094	0.0000000000
0.3376688344	0.0000000000
0.3379189595	0.0000000000
0.3381690845	0.0000000000
0.3384192096	0.0000000000
0.3386693347	0.0000000000
0.3389194597	0.0000000000
0.3391695848	0.0000000000
0.3394197099	0.0000000000
0.3396698349	0.0000000000
0.3399199600	0.0000000000
0.3401700850	0.0000000000
0.3404202101	0.0000000000
0.3406703352	0.0000000000
0.3409204602	0.0000000000
0.3411705853	0.0000000000
0.3414207104	0.0000000000
0.3416708354	0.0000000000
0.3419209605	0.0000000000
0.3421710855	0.0000000000
0.3424212106	0.0000000000
0.3426713357	0.0000000000
0.3429214607	0.0000000000
0.3431715858	0.0000000000
0.3434217109	0.0000000000
0.3436718359	0.0000000000
0.3439219610	0.0000000000
0.3441720860	0.0000000000
0.3444222111	0.0000000000
0.3446723362	0.0000000000
0.3449224612	0.0000000000
0.3451725863	0.0000000000
0.3454227114	0.0000000000
0.3456728364	0.0000000000
0.3459229615	0.0000000000
0.3461730865	0.0000000000
0.3464232116	0.0000000000
0.3466733367	0.0000000000
0.3469234617	0.0000000000
0.3471735868	0.0000000000
0.3474237119	0.0000000000
0.3476738369	0.0000000000
0.3479239620	0.0000000000
0.3481740870	0.0000000000
0.3484242121	0.0000000000
0.3486743372	0.0000000000
0.3489244622	0.0000000000
0.3491745873	0.0000000000
0.3494247124	0.0000000000
0.3496748374	0.0000000000
0.3499249625	0.0000000000
0.3501750875	0.0000000000
0.3504252126	0.0000000000
0.3506753377	0.0000000000
0.3509254627	0.0000000000
0.3511755878	0.0000000000
0.3514257129	0.0000000000
0.3516758379	0.0000000000
0.3519259630	0.0000000000
0.3521760880	0.0000000000
0.3524262131	0.0000000000
0.3526763382	0.0000000000
0.3529264632	0.0000000000
0.3531765883	0.0000000000
0.3534267134	0.0000000000
0.3536768384	0.0000000000
0.3539269635	0.0000000000
0.3541770885	0.0000000000
0.3544272136	0.0000000000
0.3546773387	0.0000000000
0.3549274637	0.0000000000
0.3551775888	0.0000000000
0.3554277139	0.0000000000
0.3556778389	0.0000000000
0.3559279640	0.0000000000
0.3561780890	0.0000000000
0.3564282141	0.0000000000
0.3566783392	0.0000000000
0.3569284642	0.0000000000
0.3571785893	0.0000000000
0.3574287144	0.0000000000
0.3576788394	0.0000000000
0.3579289645	0.0000000000
0.3581790895	0.0000000000
0.3584292146	0.0000000000
0.3586793397	0.0000000000
0.3589294647	0.0000000000
0.3591795898	0.0000000000
0.3594297149	0.0000000000
0.3596798399	0.0000000000
0.3599299650	0.0000000000
0.3601800900	0.0000000000
0.3604302151	0.0000000000
0.3606803402	0.0000000000
0.3609304652	0.0000000000
0.3611805903	0.0000000000
0.3614307154	0.0000000000
0.3616808404	0.0000000000
0.3619309655	0.0000000000
0.3621810905	0.0000000000
0.3624312156	0.0000000000
0.3626813407	0.0000000000
0.3629314657	0.0000000000
0.3631815908	0.0000000000
0.3634317159	0.0000000000
0.3636818409	0.0000000000
0.3639319660	0.0000000000
0.3641820910	0.0000000000
0.3644322161	0.0000000000
0.3646823412	0.0000000000
0.3649324662	0.0000000000
0.3651825913	0.0000000000
0.3654327164	0.0000000000
0.3656828414	0.0000000000
0.3659329665	0.0000000000
0.3661830915	0.0000000000
0.3664332166	0.0000000000
0.3666833417	0.0000000000
0.3669334667	0.0000000000
0.3671835918	0.0000000000
0.3674337169	0.0000000000
0.3676838419	0.0000000000
0.3679339670	0.0000000000
0.3681840920	0.0000000000
0.3684342171	0.0000000000
0.3686843422	0.0000000000
0.3689344672	0.0000000000
0.3691845923	0.0000000000
0.3694347174	0.0000000000
0.3696848424	0.0000000000
0.3699349675	0.0000000000
0.3701850925	0.0000000000
0.3704352176	0.0000000000
0.3706853427	0.0000000000
0.3709354677	0.0000000000
0.3711855928	0.0000000000
0.3714357179	0.0000000000
0.3716858429	0.0000000000
0.3719359680	0.0000000000
0.3721860930	0.0000000000
0.3724362181	0.0000000000
0.3726863432	0.0000000000
0.3729364682	0.0000000000
0.3731865933	0.0000000000
0.3734367184	0.0000000000
0.3736868434	0.0000000000
0.3739369685	0.0000000000
0.3741870935	0.0000000000
0.3744372186	0.0000000000
0.3746873437	0.0000000000
0.3749374687	0.0000000000
0.3751875938	0.0000000000
0.3754377189	0.0000000000
0.3756878439	0.0000000000
0.3759379690	0.0000000000
0.3761880940	0.0000000000
0.3764382191	0.0000000000
0.3766883442	0.0000000000
0.3769384692	0.0000000000
0.3771885943	0.0000000000
0.3774387194	0.0000000000
0.3776888444	0.0000000000
0.3779389695	0.0000000000
0.3781890945	0.0000000000
0.3784392196	0.0000000000
0.3786893447	0.0000000000
0.3789394697	0.0000000000
0.3791895948	0.0000000000
0.3794397199	0.0000000000
0.3796898449	0.0000000000
0.3799399700	0.0000000000
0.3801900950	0.0000000000
0.3804402201	0.0000000000
0.3806903452	0.0000000000
0.3809404702	0.0000000000
0.3811905953	0.0000000000
0.3814407204	0.0000000000
0.3816908454	0.0000000000
0.3819409705	0.0000000000
0.3821910955	0.0000000000
0.3824412206	0.0000000000
0.3826913457	0.0000000000
0.3829414707	0.0000000000
0.3831915958	0.0000000000
0.3834417209	0.0000000000
0.3836918459	0.0000000000
0.3839419710	0.0000000000
0.3841920960	0.0000000000
0.3844422211	0.0000000000
0.3846923462	0.0000000000
0.3849424712	0.0000000000
0.3851925963	0.0000000000
0.3854427214	0.0000000000
0.3856928464	0.0000000000
0.3859429715	0.0000000000
0.3861930965	0.0000000000
0.3864432216	0.0000000000
0.3866933467	0.0000000000
0.3869434717	0.0000000000
0.3871935968	0.0000000000
0.3874437219	0.0000000000
0.3876938469	0.0000000000
0.3879439720	0.0000000000
0.3881940970	0.0000000000
0.3884442221	0.0000000000
0.3886943472	0.0000000000
0.3889444722	0.0000000000
0.3891945973	0.0000000000
0.3894447224	0.0000000000
0.3896948474	0.0000000000
0.3899449725	0.0000000000
0.3901950975	0.0000000000
0.3904452226	0.0000000000
0.3906953477	0.0000000000
0.3909454727	0.0000000000
0.3911955978	0.0000000000
0.3914457229	0.0000000000
0.3916958479	0.0000000000
0.3919459730	0.0000000000
0.3921960980	0.0000000000
0.3924462231	0.0000000000
0.3926963482	0.0000000000
0.3929464732	0.0000000000
0.3931965983	0.0000000000
0.3934467234	0.0000000000
0.3936968484	0.0000000000
0.3939469735	0.0000000000
0.3941970985	0.0000000000
0.3944472236	0.0000000000
0.3946973487	0.0000000000
0.3949474737	0.0000000000
0.3951975988	0.0000000000
0.3954477239	0.0000000000
0.3956978489	0.0000000000
0.3959479740	0.0000000000
0.3961980990	0.0000000000
0.3964482241	0.0000000000
0.3966983492	0.0000000000
0.3969484742	0.0000000000
0.3971985993	0.0000000000
0.3974487244	0.0000000000
0.3976988494	0.0000000000
0.3979489745	0.0000000000
0.3981990995	0.0000000000
0.3984492246	0.0000000000
0.3986993497	0.0000000000
0.3989494747	0.0000000000
0.3991995998	0.0000000000
0.3994497249	0.0000000000
0.3996998499	0.0000000000
0.3999499750	0.0000000000
0.4002001001	0.0000000000
0.4004502251	0.0000000000
0.4007003502	0.0000000000
0.4009504752	0.0000000000
0.4012006003	0.0000000000
0.4014507254	0.0000000000
0.4017008504	0.0000000000
0.4019509755	0.0000000000
0.4022011006	0.0000000000
0.4024512256	0.0000000000
0.4027013507	0.0000000000
0.4029514757	0.0000000000
0.4032016008	0.0000000000
0.4034517259	0.0000000000
0.4037018509	0.0000000000
0.4039519760	0.0000000000
0.4042021011	0.0000000000
0.4044522261	0.0000000000
0.4047023512	0.0000000000
0.4049524762	0.0000000000
0.4052026013	0.0000000000
0.4054527264	0.0000000000
0.4057028514	0.0000000000
0.4059529765	0.0000000000
0.4062031016	0.0000000000
0.4064532266	0.0000000000
0.4067033517	0.0000000000
0.4069534767	0.0000000000
0.4072036018	0.0000000000
0.4074537269	0.0000000000
0.4077038519	0.0000000000
0.4079539770	0.0000000000
0.4082041021	0.0000000000
0.4084542271	0.0000000000
0.4087043522	0.0000000000
0.4089544772	0.0000000000
0.4092046023	0.0000000000
0.4094547274	0.0000000000
0.4097048524	0.0000000000
0.4099549775	0.0000000000
0.4102051026	0.0000000000
0.4104552276	0.0000000000
0.4107053527	0.0000000000
0.4109554777	0.0000000000
0.4112056028	0.0000000000
0.4114557279	0.0000000000
0.4117058529	0.0000000000
0.4119559780	0.0000000000
0.4122061031	0.0000000000
0.4124562281	0.0000000000
0.4127063532	0.0000000000
0.4129564782	0.0000000000
0.4132066033	0.0000000000
0.4134567284	0.0000000000
0.4137068534	0.0000000000
0.4139569785	0.0000000000
0.4142071036	0.0000000000
0.4144572286	0.0000000000
0.4147073537	0.0000000000
0.4149574787	0.0000000000
0.4152076038	0.0000000000
0.4154577289	0.0000000000
0.4157078539	0.0000000000
0.4159579790	0.0000000000
0.4162081041	0.0000000000
0.4164582291	0.0000000000
0.4167083542	0.0000000000
0.4169584792	0.0000000000
0.4172086043	0.0000000000
0.4174587294	0.0000000000
0.4177088544	0.0000000000
0.4179589795	0.0000000000
0.4182091046	0.0000000000
0.4184592296	0.0000000000
0.4187093547	0.0000000000
0.4189594797	0.0000000000
0.4192096048	0.0000000000
0.4194597299	0.0000000000
0.4197098549	0.0000000000
0.4199599800	0.0000000000
0.4202101051	0.0000000000
0.4204602301	0.0000000000
0.4207103552	0.0000000000
0.4209604802	0.0000000000
0.4212106053	0.0000000000
0.4214607304	0.0000000000
0.4217108554	0.0000000000
0.4219609805	0.0000000000
0.4222111056	0.0000000000
0.4224612306	0.0000000000
0.4227113557	0.0000000000
0.4229614807	0.0000000000
0.4232116058	0.0000000000
0.4234617309	0.0000000000
0.4237118559	0.0000000000
0.4239619810	0.0000000000
0.4242121061	0.0000000000
0.4244622311	0.0000000000
0.4247123562	0.0000000000
0.4249624812	0.0000000000
0.4252126063	0.0000000000
0.4254627314	0.0000000000
0.4257128564	0.0000000000
0.4259629815	0.0000000000
0.4262131066	0.0000000000
0.4264632316	0.0000000000
0.4267133567	0.0000000000
0.4269634817	0.0000000000
0.4272136068	0.0000000000
0.4274637319	0.0000000000
0.4277138569	0.0000000000
0.4279639820	0.0000000000
0.4282141071	0.0000000000
0.4284642321	0.0000000000
0.4287143572	0.0000000000
0.4289644822	0.0000000000
0.4292146073	0.0000000000
0.4294647324	0.0000000000
0.4297148574	0.0000000000
0.4299649825	0.0000000000
0.4302151076	0.0000000000
0.4304652326	0.0000000000
0.4307153577	0.0000000000
0.4309654827	0.0000000000
0.4312156078	0.0000000000
0.4314657329	0.0000000000
0.4317158579	0.0000000000
0.4319659830	0.0000000000
0.4322161081	0.0000000000
0.4324662331	0.0000000000
0.4327163582	0.0000000000
0.4329664832	0.0000000000
0.4332166083	0.0000000000
0.4334667334	0.0000000000
0.4337168584	0.0000000000
0.4339669835	0.0000000000
0.4342171086	0.0000000000
0.4344672336	0.0000000000
0.4347173587	0.0000000000
0.4349674837	0.0000000000
0.4352176088	0.0000000000
0.4354677339	0.0000000000
0.4357178589	0.0000000000
0.4359679840	0.0000000000
0.4362181091	0.0000000000
0.4364682341	0.0000000000
0.4367183592	0.0000000000
0.4369684842	0.0000000000
0.4372186093	0.0000000000
0.4374687344	0.0000000000
0.4377188594	0.0000000000
0.4379689845	0.0000000000
0.4382191096	0.0000000000
0.4384692346	0.0000000000
0.4387193597	0.0000000000
0.4389694847	0.0000000000
0.4392196098	0.0000000000
0.4394697349	0.0000000000
0.4397198599	0.0000000000
0.4399699850	0.0000000000
0.4402201101	0.0000000000
0.4404702351	0.0000000000
0.4407203602	0.0000000000
0.4409704852	0.0000000000
0.4412206103	0.0000000000
0.4414707354	0.0000000000
0.4417208604	0.0000000000
0.4419709855	0.0000000000
0.4422211106	0.0000000000
0.4424712356	0.0000000000
0.4427213607	0.0000000000
0.4429714857	0.0000000000
0.4432216108	0.0000000000
0.4434717359	0.0000000000
0.4437218609	0.0000000000
0.4439719860	0.0000000000
0.4442221111	0.0000000000
0.4444722361	0.0000000000
0.4447223612	0.0000000000
0.4449724862	0.0000000000
0.4452226113	0.0000000000
0.4454727364	0.0000000000
0.4457228614	0.0000000000
0.4459729865	0.0000000000
0.4462231116	0.0000000000
0.4464732366	0.0000000000
0.4467233617	0.0000000000
0.4469734867	0.0000000000
0.4472236118	0.0000000000
0.4474737369	0.0000000000
0.4477238619	0.0000000000
0.4479739870	0.0000000000
0.4482241121	0.0000000000
0.4484742371	0.0000000000
0.4487243622	0.0000000000
0.4489744872	0.0000000000
0.4492246123	0.0000000000
0.4494747374	0.0000000000
0.4497248624	0.0000000000
0.4499749875	0.0000000000
0.4502251126	0.0000000000
0.4504752376	0.0000000000
0.4507253627	0.0000000000
0.4509754877	0.0000000000
0.4512256128	0.0000000000
0.4514757379	0.0000000000
0.4517258629	0.0000000000
0.4519759880	0.0000000000
0.4522261131	0.0000000000
0.4524762381	0.0000000000
0.4527263632	0.0000000000
0.4529764882	0.0000000000
0.4532266133	0.0000000000
0.4534767384	0.0000000000
0.4537268634	0.0000000000
0.4539769885	0.0000000000
0.4542271136	0.0000000000
0.4544772386	0.0000000000
0.4547273637	0.0000000000
0.4549774887	0.0000000000
0.4552276138	0.0000000000
0.4554777389	0.0000000000
0.4557278639	0.0000000000
0.4559779890	0.0000000000
0.4562281141	0.0000000000
0.4564782391	0.0000000000
0.4567283642	0.0000000000
0.4569784892	0.0000000000
0.4572286143	0.0000000000
0.4574787394	0.0000000000
0.4577288644	0.0000000000
0.4579789895	0.0000000000
0.4582291146	0.0000000000
0.4584792396	0.0000000000
0.4587293647	0.0000000000
0.4589794897	0.0000000000
0.4592296148	0.0000000000
0.4594797399	0.0000000000
0.4597298649	0.0000000000
0.4599799900	0.0000000000
0.4602301151	0.0000000000
0.4604802401	0.0000000000
0.4607303652	0.0000000000
0.4609804902	0.0000000000
0.4612306153	0.0000000000
0.4614807404	0.0000000000
0.4617308654	0.0000000000
0.4619809905	0.0000000000
0.4622311156	0.0000000000
0.4624812406	0.0000000000
0.4627313657	0.0000000000
0.4629814907	0.0000000000
0.4632316158	0.0000000000
0.4634817409	0.0000000000
0.4637318659	0.0000000000
0.4639819910	0.0000000000
0.4642321161	0.0000000000
0.4644822411	0.0000000000
0.4647323662	0.0000000000
0.4649824912	0.0000000000
0.4652326163	0.0000000000
0.4654827414	0.0000000000
0.4657328664	0.0000000000
0.4659829915	0.0000000000
0.4662331166	0.0000000000
0.4664832416	0.0000000000
0.4667333667	0.0000000000
0.4669834917	0.0000000000
0.4672336168	0.0000000000
0.4674837419	0.0000000000
0.4677338669	0.0000000000
0.4679839920	0.0000000000
0.4682341171	0.0000000000
0.4684842421	0.0000000000
0.4687343672	0.0000000000
0.4689844922	0.0000000000
0.4692346173	0.0000000000
0.4694847424	0.0000000000
0.4697348674	0.0000000000
0.4699849925	0.0000000000
0.4702351176	0.0000000000
0.4704852426	0.0000000000
0.4707353677	0.0000000000
0.4709854927	0.0000000000
0.4712356178	0.0000000000
0.4714857429	0.0000000000
0.4717358679	0.0000000000
0.4719859930	0.0000000000
0.4722361181	0.0000000000
0.4724862431	0.0000000000
0.4727363682	0.0000000000
0.4729864932	0.0000000000
0.4732366183	0.0000000000
0.4734867434	0.0000000000
0.4737368684	0.0000000000
0.4739869935	0.0000000000
0.4742371186	0.0000000000
0.4744872436	0.0000000000
0.4747373687	0.0000000000
0.4749874937	0.0000000000
0.4752376188	0.0000000000
0.4754877439	0.0000000000
0.4757378689	0.0000000000
0.4759879940	0.0000000000
0.4762381191	0.0000000000
0.4764882441	0.0000000000
0.4767383692	0.0000000000
0.4769884942	0.0000000000
0.4772386193	0.0000000000
0.4774887444	0.0000000000
0.4777388694	0.0000000000
0.4779889945	0.0000000000
0.4782391196	0.0000000000
0.4784892446	0.0000000000
0.4787393697	0.0000000000
0.4789894947	0.0000000000
0.4792396198	0.0000000000
0.4794897449	0.0000000000
0.4797398699	0.0000000000
0.4799899950	0.0000000000
0.4802401201	0.0000000000
0.4804902451	0.0000000000
0.4807403702	0.0000000000
0.4809904952	0.0000000000
0.4812406203	0.0000000000
0.4814907454	0.0000000000
0.4817408704	0.0000000000
0.4819909955	0.0000000000
0.4822411206	0.0000000000
0.4824912456	0.0000000000
0.4827413707	0.0000000000
0.4829914957	0.0000000000
0.4832416208	0.0000000000
0.4834917459	0.0000000000
0.4837418709	0.0000000000
0.4839919960	0.0000000000
0.4842421211	0.0000000000
0.4844922461	0.0000000000
0.4847423712	0.0000000000
0.4849924962	0.0000000000
0.4852426213	0.0000000000
0.4854927464	0.0000000000
0.4857428714	0.0000000000
0.4859929965	0.0000000000
0.4862431216	0.0000000000
0.4864932466	0.0000000000
0.4867433717	0.0000000000
0.4869934967	0.0000000000
0.4872436218	0.0000000000
0.4874937469	0.0000000000
0.4877438719	0.0000000000
0.4879939970	0.0000000000
0.4882441221	0.0000000000
0.4884942471	0.0000000000
0.4887443722	0.0000000000
0.4889944972	0.0000000000
0.4892446223	0.0000000000
0.4894947474	0.0000000000
0.4897448724	0.0000000000
0.4899949975	0.0000000000
0.4902451226	0.0000000000
0.4904952476	0.0000000000
0.4907453727	0.0000000000
0.4909954977	0.0000000000
0.4912456228	0.0000000000
0.4914957479	0.0000000000
0.4917458729	0.0000000000
0.4919959980	0.0000000000
0.4922461231	0.0000000000
0.4924962481	0.0000000000
0.4927463732	0.0000000000
0.4929964982	0.0000000000
0.4932466233	0.0000000000
0.4934967484	0.0000000000
0.4937468734	0.0000000000
0.4939969985	0.0000000000
0.4942471236	0.0000000000
0.4944972486	0.0000000000
0.4947473737	0.0000000000
0.4949974987	0.0000000000
0.4952476238	0.0000000000
0.4954977489	0.0000000000
0.4957478739	0.0000000000
0.4959979990	0.0000000000
0.4962481241	0.0000000000
0.4964982491	0.0000000000
0.4967483742	0.0000000000
0.4969984992	0.0000000000
0.4972486243	0.0000000000
0.4974987494	0.0000000000
0.4977488744	0.0000000000
0.4979989995	0.0000000000
0.4982491246	0.0000000000
0.4984992496	0.0000000000
0.4987493747	0.0000000000
0.4989994997	0.0000000000
0.4992496248	0.0000000000
0.4994997499	0.0000000000
0.4997498749	0.0000000000
0.5000000000	0.0000000000
