0.0000000000	18.6509592565
0.0002501251	18.6408575426
0.0005002501	18.6274163270
0.0007503752	18.6139627325
0.0010005003	18.6038746176
0.0012506253	18.5904221972
0.0015007504	18.5803225356
0.0017508754	18.5668825846
0.0020010005	18.5534369433
0.0022511256	18.5433409439
0.0025012506	18.5299038790
0.0027513757	18.5164579205
0.0030015008	18.5063735344
0.0032516258	18.4929272667
0.0035017509	18.4828311953
0.0037518759	18.4693997596
0.0040020010	18.4559562790
0.0042521261	18.4458603576
0.0045022511	18.4324312997
0.0047523762	18.4189882184
0.0050025013	18.4089095872
0.0052526263	18.3954690875
0.0055027514	18.3853838923
0.0057528764	18.3719510206
0.0060030015	18.3585121795
0.0062531266	18.3484262765
0.0065032516	18.3350017431
0.0067533767	18.3215690565
0.0070035018	18.3114868478
0.0072536268	18.2980572519
0.0075037519	18.2879717457
0.0077538769	18.2745492861
0.0080040020	18.2611158195
0.0082541271	18.2510296759
0.0085042521	18.2376116943
0.0087543772	18.2241818816
0.0090045023	18.2140954681
0.0092546273	18.2006825872
0.0095047524	18.1905955890
0.0097548774	18.1771820712
0.0100050025	18.1637621136
0.0102551276	18.1536808654
0.0105052526	18.1402652037
0.0107553777	18.1268398468
0.0110055028	18.1167627638
0.0112556278	18.1033530720
0.0115057529	18.0899313058
0.0117558779	18.0798642560
0.0120060030	18.0664430427
0.0122561281	18.0563666260
0.0125062531	18.0429591678
0.0127563782	18.0295402795
0.0130065033	18.0194636596
0.0132566283	18.0060609623
0.0135067534	17.9926447258
0.0137568784	17.9825825509
0.0140070035	17.9691698413
0.0142571286	17.9590968473
0.0145072536	17.9456992934
0.0147573787	17.9322837095
0.0150075038	17.9222146947
0.0152576288	17.9088127739
0.0155077539	17.8954089703
0.0157578789	17.8853499437
0.0160080040	17.8719409062
0.0162581291	17.8618729774
0.0165082541	17.8484771182
0.0167583792	17.8350702281
0.0170085043	17.8250028956
0.0172586293	17.8116110919
0.0175087544	17.7982057833
0.0177588794	17.7881579675
0.0180090045	17.7747536987
0.0182591296	17.7646881857
0.0185092546	17.7512978731
0.0187593797	17.7379009319
0.0190095048	17.7278410966
0.0192596298	17.7144517813
0.0195097549	17.7010520829
0.0197598799	17.6909940651
0.0200100050	17.6776088898
0.0202601301	17.6675489689
0.0205102551	17.6541668472
0.0207603802	17.6407735278
0.0210105053	17.6307169343
0.0212606303	17.6173341923
0.0215107554	17.6039400729
0.0217608804	17.5938839554
0.0220110055	17.5805063975
0.0222611306	17.5671234068
0.0225112556	17.5570742695
0.0227613807	17.5436850929
0.0230115058	17.5336377236
0.0232616308	17.5202598260
0.0235117559	17.5068773816
0.0237618809	17.4968212186
0.0240120060	17.4834538412
0.0242621311	17.4700661928
0.0245122561	17.4600282406
0.0247623812	17.4466486773
0.0250125063	17.4365997796
0.0252626313	17.4232304226
0.0255127564	17.4098513353
0.0257628814	17.3998109072
0.0260130065	17.3864386284
0.0262631316	17.3730599822
0.0265132566	17.3630349174
0.0267633817	17.3496502804
0.0270135068	17.3396090994
0.0272636318	17.3262454332
0.0275137569	17.3128729115
0.0277638819	17.3028306541
0.0280140070	17.2894744897
0.0282641321	17.2760974580
0.0285142571	17.2660745311
0.0287643822	17.2527001934
0.0290145073	17.2426625977
0.0292646323	17.2293087676
0.0295147574	17.2159399961
0.0297648824	17.2058996766
0.0300150075	17.1925481310
0.0302651326	17.1791803947
0.0305152576	17.1691504503
0.0307653827	17.1557947547
0.0310155078	17.1457630597
0.0312656328	17.1324100459
0.0315157579	17.1190530485
0.0317658829	17.1090172311
0.0320160080	17.0956709592
0.0322661331	17.0823117076
0.0325162581	17.0722819210
0.0327663832	17.0589339610
0.0330165083	17.0455812355
0.0332666333	17.0355641524
0.0335167584	17.0222089650
0.0337668834	17.0121798134
0.0340170085	16.9988397129
0.0342671336	16.9854862660
0.0345172586	16.9754592614
0.0347673837	16.9621243762
0.0350175088	16.9487776261
0.0352676338	16.9387570316
0.0355177589	16.9254104341
0.0357678839	16.9153912481
0.0360180090	16.9020528112
0.0362681341	16.8887103774
0.0365182591	16.8786872170
0.0367683842	16.8653548970
0.0370185093	16.8520094204
0.0372686343	16.8420038860
0.0375187594	16.8286618419
0.0377688844	16.8186417171
0.0380190095	16.8053125674
0.0382691346	16.7919761870
0.0385192596	16.7819634831
0.0387693847	16.7686341046
0.0390195098	16.7552919410
0.0392696348	16.7452897470
0.0395197599	16.7319539849
0.0397698849	16.7219406978
0.0400200100	16.7086245409
0.0402701351	16.6952915098
0.0405202601	16.6852738934
0.0407703852	16.6719549803
0.0410205103	16.6586235836
0.0412706353	16.6486154403
0.0415207604	16.6353001381
0.0417708854	16.6219709063
0.0420210105	16.6119742626
0.0422711356	16.5986492715
0.0425212606	16.5886458157
0.0427713857	16.5753305442
0.0430215108	16.5620047202
0.0432716358	16.5519980225
0.0435217609	16.5386848989
0.0437718859	16.5253705416
0.0440220110	16.5153767718
0.0442721361	16.5020603206
0.0445222611	16.4920566549
0.0447723862	16.4787469056
0.0450225113	16.4654286505
0.0452726363	16.4554304562
0.0455227614	16.4421235806
0.0457728864	16.4288116759
0.0460230115	16.4188255569
0.0462731366	16.4055113725
0.0465232616	16.3955143863
0.0467733867	16.3822139017
0.0470235118	16.3689058604
0.0472736368	16.3589095323
0.0475237619	16.3456168937
0.0477738869	16.3323074705
0.0480240120	16.3223200207
0.0482741371	16.3090108880
0.0485242621	16.2990208144
0.0487743872	16.2857250173
0.0490245123	16.2724254876
0.0492746373	16.2624372790
0.0495247624	16.2491443070
0.0497748874	16.2358435580
0.0500250125	16.2258595699
0.0502751376	16.2125680381
0.0505252626	16.2025814022
0.0507753877	16.1892936203
0.0510255128	16.1759959888
0.0512756378	16.1660089352
0.0515257629	16.1527258737
0.0517758879	16.1394300591
0.0520260130	16.1294455856
0.0522761381	16.1161686986
0.0525262631	16.1028735866
0.0527763882	16.0929100354
0.0530265133	16.0796128191
0.0532766383	16.0696390893
0.0535267634	16.0563568308
0.0537768884	16.0430677350
0.0540270135	16.0330941737
0.0542771386	16.0198203832
0.0545272636	16.0065343028
0.0547773887	15.9965699017
0.0550275138	15.9832835151
0.0552776388	15.9733085168
0.0555277639	15.9600388373
0.0557778889	15.9467650619
0.0560280140	15.9367826620
0.0562781391	15.9235159757
0.0565282641	15.9102365362
0.0567783892	15.9002772134
0.0570285143	15.8869996317
0.0572786393	15.8770340719
0.0575287644	15.8637697554
0.0577788894	15.8504945641
0.0580290145	15.8405290152
0.0582791396	15.8272707116
0.0585292646	15.8139967729
0.0587793897	15.8040445244
0.0590295148	15.7907719657
0.0592796398	15.7808058815
0.0595297649	15.7675520431
0.0597798899	15.7542841802
0.0600300150	15.7443236815
0.0602801401	15.7310743817
0.0605302651	15.7178016159
0.0607803902	15.7078430342
0.0610305153	15.6945966721
0.0612806403	15.6846318461
0.0615307654	15.6713832854
0.0617808904	15.6581222047
0.0620310155	15.6481671553
0.0622811406	15.6349193361
0.0625312656	15.6216629433
0.0627813907	15.6117060336
0.0630315158	15.5984627740
0.0632816408	15.5852071318
0.0635317659	15.5752712019
0.0637818909	15.5620135114
0.0640320160	15.5520599273
0.0642821411	15.5388191622
0.0645322661	15.5255679577
0.0647823912	15.5156182860
0.0650325163	15.5023820967
0.0652826413	15.4891336042
0.0655327664	15.4791973880
0.0657828914	15.4659544049
0.0660330165	15.4560099524
0.0662831416	15.4427782305
0.0665332666	15.4295341745
0.0667833917	15.4195879673
0.0670335168	15.4063589370
0.0672836418	15.3931176205
0.0675337669	15.3831886635
0.0677838919	15.3699471277
0.0680340170	15.3600043000
0.0682841421	15.3467797770
0.0685342671	15.3335466778
0.0687843922	15.3236097752
0.0690345173	15.3103822299
0.0692846423	15.2971538702
0.0695347674	15.2872227156
0.0697848924	15.2739960505
0.0700350175	15.2640604959
0.0702851426	15.2508392742
0.0705352676	15.2376136339
0.0707853927	15.2276782289
0.0710355178	15.2144638204
0.0712856428	15.2012369679
0.0715357679	15.1913036833
0.0717858929	15.1780918911
0.0720360180	15.1681601587
0.0722861431	15.1549499136
0.0725362681	15.1417277625
0.0727863932	15.1318053355
0.0730365183	15.1185944351
0.0732866433	15.1053712600
0.0735367684	15.0954511308
0.0737868934	15.0822411620
0.0740370185	15.0690279547
0.0742871436	15.0591156697
0.0745372686	15.0459007207
0.0747873937	15.0359802057
0.0750375188	15.0227784595
0.0752876438	15.0095666810
0.0755377689	14.9996460838
0.0757878939	14.9864491737
0.0760380190	14.9732400334
0.0762881441	14.9633331642
0.0765382691	14.9501257778
0.0767883942	14.9402064321
0.0770385193	14.9270145107
0.0772886443	14.9138099858
0.0775387694	14.9038967605
0.0777888944	14.8907038544
0.0780390195	14.8775033673
0.0782891446	14.8676061603
0.0785392696	14.8544043236
0.0787893947	14.8444952731
0.0790395198	14.8313086807
0.0792896448	14.8181151266
0.0795397699	14.8082061747
0.0797898949	14.7950218333
0.0800400200	14.7818260102
0.0802901451	14.7719307445
0.0805402701	14.7587382294
0.0807903952	14.7488322133
0.0810405203	14.7356549517
0.0812906453	14.7224653008
0.0815407704	14.7125600327
0.0817908954	14.6993876997
0.0820410205	14.6861990316
0.0822911456	14.6763018130
0.0825412706	14.6631286659
0.0827913957	14.6532299755
0.0830415208	14.6400606140
0.0832916458	14.6268781180
0.0835417709	14.6169807072
0.0837918959	14.6038123007
0.0840420210	14.5906327812
0.0842921461	14.5807360414
0.0845422711	14.5675740672
0.0847923962	14.5543977103
0.0850425213	14.5445160520
0.0852926463	14.5313396753
0.0855427714	14.5214556897
0.0857928964	14.5082911697
0.0860430215	14.4951172474
0.0862931466	14.4852294564
0.0865432716	14.4720770608
0.0867933967	14.4589048260
0.0870435218	14.4490307932
0.0872936468	14.4358659343
0.0875437719	14.4259795005
0.0877938969	14.4128260447
0.0880440220	14.3996631346
0.0882941471	14.3897777235
0.0885442721	14.3766287655
0.0887943972	14.3634685200
0.0890445223	14.3536011181
0.0892946473	14.3404435242
0.0895447724	14.3305577350
0.0897948974	14.3174157229
0.0900450225	14.3042600588
0.0902951476	14.2943845159
0.0905452726	14.2812474040
0.0907953977	14.2680895383
0.0910455228	14.2582241955
0.0912956478	14.2450750264
0.0915457729	14.2352041470
0.0917958979	14.2220678327
0.0920460230	14.2089201167
0.0922961481	14.1990462770
0.0925462731	14.1859131322
0.0927963982	14.1727680481
0.0930465233	14.1628972042
0.0932966483	14.1497675682
0.0935467734	14.1366253854
0.0937968984	14.1267682556
0.0940470235	14.1136308834
0.0942971486	14.1037670190
0.0945472736	14.0906363215
0.0947973987	14.0775004681
0.0950475238	14.0676414483
0.0952976488	14.0545179571
0.0955477739	14.0413847818
0.0957978989	14.0315330967
0.0960480240	14.0184041253
0.0962981491	14.0085435583
0.0965482741	13.9954218191
0.0967983992	13.9822988372
0.0970485243	13.9724424238
0.0972986493	13.9593244107
0.0975487744	13.9462004689
0.0977988994	13.9363569583
0.0980490245	13.9232314666
0.0982991496	13.9133756718
0.0985492746	13.9002663294
0.0987993997	13.8871467411
0.0990495248	13.8772976943
0.0992996498	13.8641917617
0.0995497749	13.8510741390
0.0997998999	13.8412347609
0.1000500250	13.8281243620
0.1003001501	13.8182730532
0.1005502751	13.8051711020
0.1008004002	13.7920579576
0.1010505253	13.7822145603
0.1013006503	13.7691182026
0.1015507754	13.7560071848
0.1018009005	13.7461754240
0.1020510255	13.7330685222
0.1023011506	13.7232252206
0.1025512756	13.7101335837
0.1028014007	13.6970290137
0.1030515258	13.6871916856
0.1033016508	13.6740985400
0.1035517759	13.6610010015
0.1038019010	13.6511617365
0.1040520260	13.6380766501
0.1043021511	13.6249819698
0.1045522761	13.6151560392
0.1048024012	13.6020614289
0.1050525263	13.5922279672
0.1053026513	13.5791476992
0.1055527764	13.5660539891
0.1058029015	13.5562215792
0.1060530265	13.5431466843
0.1063031516	13.5300544777
0.1065532766	13.5202393146
0.1068034017	13.5071490975
0.1070535268	13.4973272186
0.1073036518	13.4842513662
0.1075537769	13.4711684750
0.1078039020	13.4613475239
0.1080540270	13.4482723039
0.1083041521	13.4351918239
0.1085542771	13.4253841872
0.1088044022	13.4123060782
0.1090545273	13.4024849033
0.1093046523	13.3894203546
0.1095547774	13.3763437493
0.1098049025	13.3665246015
0.1100550275	13.3534640563
0.1103051526	13.3403900147
0.1105552776	13.3305864462
0.1108054027	13.3175162166
0.1110555278	13.3077033786
0.1113056528	13.2946445268
0.1115557779	13.2815764420
0.1118059030	13.2717686555
0.1120560280	13.2587143800
0.1123061531	13.2456508309
0.1125562781	13.2358426610
0.1128064032	13.2227907041
0.1130565283	13.2129859124
0.1133066533	13.1999345358
0.1135567784	13.1868803848
0.1138069035	13.1770743780
0.1140570285	13.1640286288
0.1143071536	13.1509739346
0.1145572786	13.1411690896
0.1148074037	13.1281289512
0.1150575288	13.1150765573
0.1153076538	13.1052873498
0.1155577789	13.0922386376
0.1158079040	13.0824383880
0.1160580290	13.0694057081
0.1163081541	13.0563583469
0.1165582791	13.0465625566
0.1168084042	13.0335306125
0.1170585293	13.0204854731
0.1173086543	13.0107023574
0.1175587794	12.9976613470
0.1178089045	12.9878733145
0.1180590295	12.9748453879
0.1183091546	12.9618072107
0.1185592796	12.9520176112
0.1188094047	12.9389932251
0.1190595298	12.9259595051
0.1193096548	12.9161819433
0.1195597799	12.9031562715
0.1198099050	12.8933629586
0.1200600300	12.8803458209
0.1203101551	12.8673201838
0.1205602801	12.8575347198
0.1208104052	12.8445166239
0.1210605303	12.8314944696
0.1213106553	12.8217265549
0.1215607804	12.8087013741
0.1218109055	12.7989233918
0.1220610305	12.7859151197
0.1223111556	12.7728963934
0.1225612806	12.7631182249
0.1228114057	12.7501116728
0.1230615308	12.7370966495
0.1233116558	12.7273199531
0.1235617809	12.7143187541
0.1238119060	12.7045435603
0.1240620310	12.6915444260
0.1243121561	12.6785362900
0.1245622811	12.6687655315
0.1248124062	12.6557666465
0.1250625313	12.6427558485
0.1253126563	12.6329954405
0.1255627814	12.6199998215
0.1258129065	12.6069944816
0.1260630315	12.5972465748
0.1263131566	12.5842430791
0.1265632816	12.5744786824
0.1268134067	12.5614913856
0.1270635318	12.5484920960
0.1273136568	12.5387290190
0.1275637819	12.5257467132
0.1278139070	12.5127486992
0.1280640320	12.5030053668
0.1283141571	12.4900142460
0.1285642821	12.4802564572
0.1288144072	12.4672777904
0.1290645323	12.4542839926
0.1293146573	12.4445345189
0.1295647824	12.4315617825
0.1298149075	12.4185725406
0.1300650325	12.4088359894
0.1303151576	12.3958482831
0.1305652826	12.3861026445
0.1308154077	12.3731351327
0.1310655328	12.3601522083
0.1313156578	12.3504065930
0.1315657829	12.3374398366
0.1318159080	12.3244635790
0.1320660330	12.3147322476
0.1323161581	12.3017545766
0.1325662831	12.2920163327
0.1328164082	12.2790523355
0.1330665333	12.2660814152
0.1333166583	12.2563434458
0.1335667834	12.2433864412
0.1338169085	12.2304190554
0.1340670335	12.2206847863
0.1343171586	12.2077292109
0.1345672836	12.1979955955
0.1348174087	12.1850457335
0.1350675338	12.1720828608
0.1353176588	12.1623494558
0.1355677839	12.1494022587
0.1358179090	12.1364434593
0.1360680340	12.1267146966
0.1363181591	12.1137691153
0.1365682841	12.1007208081
0.1368184092	12.0910024423
0.1370685343	12.0780508840
0.1373186593	12.0683290599
0.1375687844	12.0553898273
0.1378189095	12.0424423779
0.1380690345	12.0327178116
0.1383191596	12.0197828367
0.1385692846	12.0068402401
0.1388194097	11.9971317649
0.1390695348	11.9841901741
0.1393196598	11.9744686766
0.1395697849	11.9615415488
0.1398199100	11.9486043920
0.1400700350	11.9388879796
0.1403201601	11.9259618551
0.1405702851	11.9130272738
0.1408204102	11.9033267561
0.1410705353	11.8903947931
0.1413206603	11.8806841587
0.1415707854	11.8677628879
0.1418209105	11.8548353510
0.1420710355	11.8451276742
0.1423211606	11.8322135751
0.1425712856	11.8192886175
0.1428214107	11.8095920161
0.1430715358	11.7966707810
0.1433216608	11.7869673150
0.1435717859	11.7740631769
0.1438219110	11.7611386511
0.1440720360	11.7514374767
0.1443221611	11.7385302411
0.1445722861	11.7256187269
0.1448224112	11.7159179768
0.1450725363	11.7030173065
0.1453226613	11.6933220382
0.1455727864	11.6804194426
0.1458229115	11.6675141288
0.1460730365	11.6578175884
0.1463231616	11.6449242869
0.1465732866	11.6320190780
0.1468234117	11.6223306361
0.1470735368	11.6094417231
0.1473236618	11.5965364393
0.1475737869	11.5868593583
0.1478239120	11.5739591626
0.1480740370	11.5642733928
0.1483241621	11.5513905363
0.1485742871	11.5384937104
0.1488244122	11.5288109997
0.1490745373	11.5159273202
0.1493246623	11.5030343337
0.1495747874	11.4933694420
0.1498249125	11.4804790391
0.1500750375	11.4708021124
0.1503251626	11.4579244274
0.1505752876	11.4450382620
0.1508254127	11.4353643153
0.1510755378	11.4224943379
0.1513256628	11.4096112556
0.1515757879	11.3999514331
0.1518259130	11.3870759307
0.1520760380	11.3774006527
0.1523261631	11.3645375250
0.1525762881	11.3516595747
0.1528264132	11.3419938975
0.1530765383	11.3291356405
0.1533266633	11.3162613899
0.1535767884	11.3066113468
0.1538269135	11.2937375601
0.1540770385	11.2840777912
0.1543271636	11.2712254478
0.1545772886	11.2583580427
0.1548274137	11.2487005907
0.1550775388	11.2358451448
0.1553276638	11.2229882134
0.1555777889	11.2133331813
0.1558279140	11.2004832633
0.1560780390	11.1908301588
0.1563281641	11.1779831580
0.1565782891	11.1651316499
0.1568284142	11.1554798989
0.1570785393	11.1426375884
0.1573286643	11.1297861304
0.1575787894	11.1201385352
0.1578289145	11.1073035209
0.1580790395	11.0944526810
0.1583291646	11.0848203028
0.1585792896	11.0719758914
0.1588294147	11.0623341969
0.1590795398	11.0495043542
0.1593296648	11.0366638819
0.1595797899	11.0270252455
0.1598299150	11.0141954786
0.1600800400	11.0013616446
0.1603301651	10.9917362855
0.1605802901	10.9789031671
0.1608304152	10.9692717303
0.1610805403	10.9564496982
0.1613306653	10.9436176166
0.1615807904	10.9339847582
0.1618309155	10.9211705746
0.1620810405	10.9083483282
0.1623311656	10.8987250492
0.1625812906	10.8859028350
0.1628314157	10.8762756120
0.1630815408	10.8634677736
0.1633316658	10.8506497641
0.1635817909	10.8410283569
0.1638319160	10.8282189745
0.1640820410	10.8154092657
0.1643321661	10.8057980203
0.1645822911	10.7929835757
0.1648324162	10.7833683262
0.1650825413	10.7705698500
0.1653326663	10.7577631856
0.1655827914	10.7481465353
0.1658329165	10.7353552621
0.1660830415	10.7225484529
0.1663331666	10.7129348608
0.1665832916	10.7001476628
0.1668334167	10.6873481337
0.1670835418	10.6777484496
0.1673336668	10.6649554480
0.1675837919	10.6553443796
0.1678339170	10.6425618099
0.1680840420	10.6297700311
0.1683341671	10.6201667613
0.1685842921	10.6073882742
0.1688344172	10.5945976767
0.1690845423	10.5850102622
0.1693346673	10.5722237459
0.1695847924	10.5626279357
0.1698349175	10.5498560653
0.1700850425	10.5370719432
0.1703351676	10.5274752365
0.1705852926	10.5147107247
0.1708354177	10.5019310759
0.1710855428	10.4923528972
0.1713356678	10.4795745593
0.1715857929	10.4699843396
0.1718359180	10.4572299772
0.1720860430	10.4444552726
0.1723361681	10.4348725877
0.1725862931	10.4221148786
0.1728364182	10.4093490631
0.1730865433	10.3997795212
0.1733366683	10.3870125359
0.1735867934	10.3774316052
0.1738369185	10.3646834994
0.1740870435	10.3519274427
0.1743371686	10.3423457004
0.1745872936	10.3296005090
0.1748374187	10.3168496473
0.1750875438	10.3072746023
0.1753376688	10.2945332231
0.1755877939	10.2849595817
0.1758379190	10.2722212638
0.1760880440	10.2594777079
0.1763381691	10.2499080192
0.1765882941	10.2371741009
0.1768384192	10.2244292695
0.1770885443	10.2148648115
0.1773386693	10.2021362437
0.1775887944	10.1893992277
0.1778389195	10.1798458087
0.1780890445	10.1671101250
0.1783391696	10.1575511492
0.1785892946	10.1448320441
0.1788394197	10.1320994963
0.1790895448	10.1225398748
0.1793396698	10.1098290412
0.1795897949	10.0970992847
0.1798399200	10.0875587324
0.1800900450	10.0748336147
0.1803401701	10.0652791338
0.1805902951	10.0525744089
0.1808404202	10.0398516564
0.1810905453	10.0303071210
0.1813406703	10.0176008254
0.1815907954	10.0048867559
0.1818409205	9.9953550678
0.1820910455	9.9826397591
0.1823411706	9.9730965757
0.1825912956	9.9604018534
0.1828414207	9.9476951364
0.1830915458	9.9381574521
0.1833416708	9.9254614205
0.1835917959	9.9127616362
0.1838419210	9.9032363882
0.1840920460	9.8905394296
0.1843421711	9.8810035600
0.1845922961	9.8683226472
0.1848424212	9.8556304144
0.1850925463	9.8460960444
0.1853426713	9.8334141360
0.1855927964	9.8207283885
0.1858429215	9.8111973104
0.1860930465	9.7985222581
0.1863431716	9.7890012494
0.1865932966	9.7763232493
0.1868434217	9.7636413255
0.1870935468	9.7541201628
0.1873436718	9.7414543897
0.1875937969	9.7287772424
0.1878439220	9.7192652009
0.1880940470	9.7066005399
0.1883441721	9.6939261973
0.1885942971	9.6844234065
0.1888444222	9.6717539907
0.1890945473	9.6622420322
0.1893446723	9.6495871122
0.1895947974	9.6369224487
0.1898449225	9.6274103192
0.1900950475	9.6147620607
0.1903451726	9.6021060160
0.1905952976	9.5926146424
0.1908454227	9.5799540874
0.1910955478	9.5704498221
0.1913456728	9.5578075147
0.1915957979	9.5451593778
0.1918459230	9.5356568865
0.1920960480	9.5230212289
0.1923461731	9.5103722951
0.1925962981	9.5008906348
0.1928464232	9.4882484162
0.1930965483	9.4787519830
0.1933466733	9.4661244125
0.1935967984	9.4534852539
0.1938469235	9.4440001445
0.1940970485	9.4313734810
0.1943471736	9.4187394028
0.1945972986	9.4092636069
0.1948474237	9.3966326824
0.1950975488	9.3871495433
0.1953476738	9.3745331459
0.1955977989	9.3619072820
0.1958479240	9.3524297625
0.1960980490	9.3398147909
0.1963481741	9.3271973421
0.1965982991	9.3177179247
0.1968484242	9.3051134051
0.1970985493	9.2956421487
0.1973486743	9.2830350555
0.1975987994	9.2704280111
0.1978489245	9.2609585316
0.1980990495	9.2483583268
0.1983491746	9.2357491365
0.1985992996	9.2262847127
0.1988494247	9.2136915143
0.1990995498	9.2010894627
0.1993496748	9.1916367622
0.1995997999	9.1790376996
0.1998499250	9.1695788744
0.2001000500	9.1569953019
0.2003501751	9.1444008166
0.2006003002	9.1349475731
0.2008504252	9.1223642087
0.2011005503	9.1097746851
0.2013506753	9.1003380755
0.2016008004	9.0877488192
0.2018509255	9.0783029206
0.2021010505	9.0657269934
0.2023511756	9.0531472348
0.2026013007	9.0437020104
0.2028514257	9.0311381822
0.2031015508	9.0185623627
0.2033516758	9.0091304908
0.2036018009	8.9965627305
0.2038519260	8.9871195734
0.2041020510	8.9745640097
0.2043521761	8.9619974278
0.2046023012	8.9525617889
0.2048524262	8.9400105943
0.2051025513	8.9274492632
0.2053526763	8.9180276530
0.2056028014	8.9054692470
0.2058529265	8.8960422035
0.2061030515	8.8835006714
0.2063531766	8.8709460666
0.2066033017	8.8615215818
0.2068534267	8.8489855172
0.2071035518	8.8364395253
0.2073536768	8.8270186243
0.2076038019	8.8144822766
0.2078539270	8.8050663017
0.2081040520	8.7925336055
0.2083541771	8.7799985702
0.2086043022	8.7705853056
0.2088544272	8.7580591299
0.2091045523	8.7455258685
0.2093546773	8.7361168747
0.2096048024	8.7235986876
0.2098549275	8.7110675707
0.2101050525	8.7016764643
0.2103551776	8.6891505932
0.2106053027	8.6797498985
0.2108554277	8.6672405890
0.2111055528	8.6547192358
0.2113556778	8.6453225593
0.2116058029	8.6328159949
0.2118559280	8.6203022920
0.2121060530	8.6109224028
0.2123561781	8.5984133926
0.2126063032	8.5890245812
0.2128564282	8.5765236694
0.2131065533	8.5640216367
0.2133566783	8.5546315618
0.2136068034	8.5421446345
0.2138569285	8.5296433548
0.2141070535	8.5202707278
0.2143571786	8.5077752486
0.2146073037	8.4983945237
0.2148574287	8.4859163850
0.2151075538	8.4734259007
0.2153576788	8.4640510175
0.2156078039	8.4515746032
0.2158579290	8.4390938581
0.2161080540	8.4297313211
0.2163581791	8.4172505225
0.2166083042	8.4078830978
0.2168584292	8.3954170151
0.2171085543	8.3829443078
0.2173586793	8.3735788073
0.2176088044	8.3611177854
0.2178589295	8.3486497460
0.2181090545	8.3392894333
0.2183591796	8.3268358637
0.2186093047	8.3143737428
0.2188594297	8.3050272341
0.2191095548	8.2925708207
0.2193596798	8.2832142185
0.2196098049	8.2707716230
0.2198599300	8.2583176996
0.2201100550	8.2489734003
0.2203601801	8.2365328145
0.2206103052	8.2240794707
0.2208604302	8.2147509495
0.2211105553	8.2023077953
0.2213606803	8.1929639854
0.2216108054	8.1805386819
0.2218609305	8.1680990843
0.2221110555	8.1587601104
0.2223611806	8.1463397520
0.2226113057	8.1339072018
0.2228614307	8.1245886042
0.2231115558	8.1121567253
0.2233616808	8.1028269793
0.2236118059	8.0904179542
0.2238619310	8.0779935513
0.2241120560	8.0686676667
0.2243621811	8.0562641093
0.2246123062	8.0438496001
0.2248624312	8.0345406083
0.2251125563	8.0221250111
0.2253626813	8.0128095353
0.2256128064	8.0004129320
0.2258629315	7.9880063212
0.2261130565	7.9786955752
0.2263631816	7.9663034406
0.2266133067	7.9539064621
0.2268634317	7.9446077583
0.2271135568	7.9322116446
0.2273636818	7.9229063473
0.2276138069	7.9105323352
0.2278639320	7.8981395827
0.2281140570	7.8888402450
0.2283641821	7.8764643814
0.2286143072	7.8640807695
0.2288644322	7.8547842981
0.2291145573	7.8424199542
0.2293646823	7.8300405114
0.2296148074	7.8207611371
0.2298649325	7.8083883339
0.2301150575	7.7991040782
0.2303651826	7.7867453313
0.2306153077	7.7744153548
0.2308654327	7.7651299874
0.2311155578	7.7527836164
0.2313656828	7.7404192172
0.2316158079	7.7311548053
0.2318659330	7.7188011547
0.2321160580	7.7095241560
0.2323661831	7.6971850522
0.2326163082	7.6848366186
0.2328664332	7.6755645521
0.2331165583	7.6632319992
0.2333666833	7.6508934922
0.2336168084	7.6416343791
0.2338669335	7.6292971463
0.2341170585	7.6200346587
0.2343671836	7.6077114221
0.2346173087	7.5953814393
0.2348674337	7.5861242539
0.2351175588	7.5738080133
0.2353676838	7.5614882015
0.2356178089	7.5522449069
0.2358679340	7.5399227433
0.2361180590	7.5306750554
0.2363681841	7.5183717526
0.2366183092	7.5060560616
0.2368684342	7.4968129372
0.2371185593	7.4845137616
0.2373686843	7.4722079749
0.2376188094	7.4629680568
0.2378689345	7.4506788666
0.2381190595	7.4414401773
0.2383691846	7.4291562061
0.2386193097	7.4168594381
0.2388694347	7.4076303663
0.2391195598	7.3953510983
0.2393696848	7.3830628011
0.2396198099	7.3738333514
0.2398699350	7.3615611021
0.2401200600	7.3492811183
0.2403701851	7.3400723203
0.2406203102	7.3277952498
0.2408704352	7.3185797295
0.2411205603	7.3063185307
0.2413706853	7.2940470193
0.2416208104	7.2848363022
0.2418709355	7.2725826371
0.2421210605	7.2603205810
0.2423711856	7.2511231523
0.2426213107	7.2388666131
0.2428714357	7.2296625584
0.2431215608	7.2174187113
0.2433716858	7.2051702557
0.2436218109	7.1959757496
0.2438719360	7.1837364586
0.2441220610	7.1714940898
0.2443721861	7.1623099416
0.2446223112	7.1500717790
0.2448724362	7.1408813651
0.2451225613	7.1286600279
0.2453726863	7.1164276840
0.2456228114	7.1072435204
0.2458729365	7.0950275815
0.2461230615	7.0827989613
0.2463731866	7.0736344807
0.2466233117	7.0614140263
0.2468734367	7.0522394528
0.2471235618	7.0400378020
0.2473736868	7.0278240642
0.2476238119	7.0186574459
0.2478739370	7.0064561971
0.2481240620	6.9942531451
0.2483741871	6.9850876625
0.2486243122	6.9728984328
0.2488744372	6.9637440372
0.2491245623	6.9515535027
0.2493746873	6.9393615753
0.2496248124	6.9302060527
0.2498749375	6.9180283425
0.2501250625	6.9058448614
0.2503751876	6.8966946409
0.2506253127	6.8845288468
0.2508754377	6.8723501596
0.2511255628	6.8632170115
0.2513756878	6.8510414492
0.2516258129	6.8419019853
0.2518759380	6.8297474525
0.2521260630	6.8175826529
0.2523761881	6.8084492111
0.2526263132	6.7962983218
0.2528764382	6.7841396920
0.2531265633	6.7750238038
0.2533766883	6.7628677974
0.2536268134	6.7537467643
0.2538769385	6.7416117051
0.2541270635	6.7294663997
0.2543771886	6.7203430018
0.2546273137	6.7082179709
0.2548774387	6.6960767869
0.2551275638	6.6869774531
0.2553776888	6.6748457089
0.2556278139	6.6657365664
0.2558779390	6.6536191559
0.2561280640	6.6414937134
0.2563781891	6.6323933019
0.2566283142	6.6202851906
0.2568784392	6.6081662966
0.2571285643	6.5990842136
0.2573786893	6.5869714443
0.2576288144	6.5778768605
0.2578789395	6.5657825898
0.2581290645	6.5536796192
0.2583791896	6.5445940676
0.2586293147	6.5325082183
0.2588794397	6.5204113328
0.2591295648	6.5113289727
0.2593796898	6.4992485555
0.2596298149	6.4901740722
0.2598799400	6.4780963755
0.2601300650	6.4660175717
0.2603801901	6.4569456518
0.2606303152	6.4448780324
0.2608804402	6.4328017185
0.2611305653	6.4237438098
0.2613806903	6.4116827711
0.2616308154	6.3996217823
0.2618809405	6.3905715402
0.2621310655	6.3785118653
0.2623811906	6.3694572203
0.2626313157	6.3574094984
0.2628814407	6.3453589548
0.2631315658	6.3363117114
0.2633816908	6.3242780792
0.2636318159	6.3122316151
0.2638819410	6.3032022795
0.2641320660	6.2911633323
0.2643821911	6.2821225777
0.2646323162	6.2701045112
0.2648824412	6.2580737946
0.2651325663	6.2490430149
0.2653826913	6.2370240737
0.2656328164	6.2250059988
0.2658829415	6.2159912028
0.2661330665	6.2039731374
0.2663831916	6.1949544906
0.2666333167	6.1829555580
0.2668834417	6.1709439216
0.2671335668	6.1619336877
0.2673836918	6.1499428839
0.2676338169	6.1379419481
0.2678839420	6.1289495438
0.2681340670	6.1169525076
0.2683841921	6.1079493726
0.2686343172	6.0959707661
0.2688844422	6.0839896874
0.2691345673	6.0749952238
0.2693846923	6.0630214310
0.2696348174	6.0510434258
0.2698849425	6.0420592794
0.2701350675	6.0300983119
0.2703851926	6.0211086240
0.2706353177	6.0091553708
0.2708854427	5.9971954671
0.2711355678	5.9882146043
0.2713856928	5.9762700784
0.2716358179	5.9643230627
0.2718859430	5.9553467708
0.2721360680	5.9434093056
0.2723861931	5.9314638937
0.2726363182	5.9225096228
0.2728864432	5.9105734908
0.2731365683	5.9016104725
0.2733866933	5.8896931069
0.2736368184	5.8777628838
0.2738869435	5.8688059937
0.2741370685	5.8568962247
0.2743871936	5.8449763078
0.2746373187	5.8360343606
0.2748874437	5.8241247918
0.2751375688	5.8151791287
0.2753876938	5.8032800202
0.2756378189	5.7913797476
0.2758879440	5.7824427790
0.2761380690	5.7705587706
0.2763881941	5.7586581038
0.2766383192	5.7497395682
0.2768884442	5.7378487169
0.2771385693	5.7289256806
0.2773886943	5.7170532863
0.2776388194	5.7051709155
0.2778889445	5.6962562417
0.2781390695	5.6843918855
0.2783891946	5.6725170546
0.2786393197	5.6636174000
0.2788894447	5.6517525061
0.2791395698	5.6428497321
0.2793896948	5.6310005883
0.2796398199	5.6191406631
0.2798899450	5.6102434597
0.2801400700	5.5984022655
0.2803901951	5.5865614724
0.2806403202	5.5776655849
0.2808904452	5.5658427429
0.2811405703	5.5569491929
0.2813906953	5.5451269529
0.2816408204	5.5332991603
0.2818909455	5.5244193894
0.2821410705	5.5126032893
0.2823911956	5.5007813794
0.2826413207	5.4919098189
0.2828914457	5.4801045935
0.2831415708	5.4682932673
0.2833916958	5.4594410532
0.2836418209	5.4476354449
0.2838919460	5.4387732870
0.2841420710	5.4269833261
0.2843921961	5.4151919359
0.2846423212	5.4063348326
0.2848924462	5.3945627358
0.2851425713	5.3827738669
0.2853926963	5.3739360801
0.2856428214	5.3621584304
0.2858929465	5.3533145204
0.2861430715	5.3415563465
0.2863931966	5.3297914026
0.2866433217	5.3209529263
0.2868934467	5.3092017609
0.2871435718	5.2974415594
0.2873936968	5.2886248593
0.2876438219	5.2768725879
0.2878939470	5.2680508126
0.2881440720	5.2563172909
0.2883941971	5.2445737247
0.2886443222	5.2357566548
0.2888944472	5.2240314420
0.2891445723	5.2123013038
0.2893946973	5.2035032734
0.2896448224	5.1917794675
0.2898949475	5.1829769709
0.2901450725	5.1712680844
0.2903951976	5.1595527457
0.2906453227	5.1507593898
0.2908954477	5.1390612521
0.2911455728	5.1273536315
0.2913956978	5.1185679513
0.2916458229	5.1068780995
0.2918959480	5.0951858405
0.2921460730	5.0864142853
0.2923961981	5.0748130196
0.2926463232	5.0660352457
0.2928964482	5.0543679395
0.2931465733	5.0426875762
0.2933966983	5.0339218048
0.2936468234	5.0222625154
0.2938969485	5.0105941856
0.2941470735	5.0018463594
0.2943971986	4.9901854119
0.2946473237	4.9814297973
0.2948974487	4.9697893665
0.2951475738	4.9581372821
0.2953976988	4.9493929775
0.2956478239	4.9377604277
0.2958979490	4.9261243950
0.2961480740	4.9173931900
0.2963981991	4.9057604754
0.2966483242	4.8970269369
0.2968984492	4.8854161408
0.2971485743	4.8737906229
0.2973986993	4.8650670193
0.2976488244	4.8534592174
0.2978989495	4.8418516221
0.2981490745	4.8331420035
0.2983991996	4.8215408089
0.2986493247	4.8128295874
0.2988994497	4.8012423460
0.2991495748	4.7896473132
0.2993996998	4.7809430464
0.2996498249	4.7693678387
0.2998999500	4.7577847069
0.3001500750	4.7490892564
0.3004002001	4.7375285809
0.3006503252	4.7288362732
0.3009004502	4.7172788724
0.3011505753	4.7057131559
0.3014007004	4.6970316676
0.3016508254	4.6854836559
0.3019009505	4.6739314463
0.3021510755	4.6652555849
0.3024012006	4.6537238678
0.3026513257	4.6421789523
0.3029014507	4.6335252297
0.3031515758	4.6219913038
0.3034017009	4.6133314364
0.3036518259	4.6018140639
0.3039019510	4.5902895974
0.3041520760	4.5816359703
0.3044022011	4.5701322211
0.3046523262	4.5586176168
0.3049024512	4.5499837761
0.3051525763	4.5384797458
0.3054027014	4.5298453616
0.3056528264	4.5183545079
0.3059029515	4.5068620641
0.3061530765	4.4982312342
0.3064032016	4.4867555772
0.3066533267	4.4752730157
0.3069034517	4.4666619982
0.3071535768	4.4551886323
0.3074037019	4.4465774993
0.3076538269	4.4351155783
0.3079039520	4.4236573513
0.3081540770	4.4150477331
0.3084042021	4.4036026707
0.3086543272	4.3921530619
0.3089044522	4.3835656762
0.3091545773	4.3721232122
0.3094047024	4.3635318365
0.3096548274	4.3521027818
0.3099049525	4.3406743902
0.3101550775	4.3320919002
0.3104052026	4.3206787159
0.3106553277	4.3092581458
0.3109054527	4.3006872663
0.3111555778	4.2892827252
0.3114057029	4.2807168668
0.3116558279	4.2693241856
0.3119059530	4.2579239660
0.3121560780	4.2493681469
0.3124062031	4.2379853183
0.3126563282	4.2265965123
0.3129064532	4.2180494742
0.3131565783	4.2066783380
0.3134067034	4.1953036444
0.3136568284	4.1867778063
0.3139069535	4.1754120339
0.3141570785	4.1668795403
0.3144072036	4.1555280274
0.3146573287	4.1441739653
0.3149074537	4.1356536403
0.3151575788	4.1243149262
0.3154077039	4.1129763561
0.3156578289	4.1044695460
0.3159079540	4.0931407468
0.3161580790	4.0846345522
0.3164082041	4.0733154038
0.3166583292	4.0619953046
0.3169084542	4.0535002180
0.3171585793	4.0421971857
0.3174087044	4.0308907751
0.3176588294	4.0224153741
0.3179089545	4.0111153833
0.3181590795	4.0026332264
0.3184092046	3.9913562106
0.3186593297	3.9800684625
0.3189094547	3.9715961643
0.3191595798	3.9603331050
0.3194097049	3.9490620802
0.3196598299	3.9406067185
0.3199099550	3.9293433731
0.3201600800	3.9208900421
0.3204102051	3.9096465513
0.3206603302	3.8983940869
0.3209104552	3.8899536838
0.3211605803	3.8787233622
0.3214107054	3.8674860096
0.3216608304	3.8590538351
0.3219109555	3.8478330490
0.3221610805	3.8394077763
0.3224112056	3.8282013439
0.3226613307	3.8169871790
0.3229114557	3.8085681644
0.3231615808	3.7973782730
0.3234117059	3.7861797167
0.3236618309	3.7777711780
0.3239119560	3.7665929787
0.3241620810	3.7554079914
0.3244122061	3.7470230722
0.3246623312	3.7358488416
0.3249124562	3.7274603347
0.3251625813	3.7163039552
0.3254127064	3.7051437921
0.3256628314	3.6967696208
0.3259129565	3.6856285033
0.3261630815	3.6744800527
0.3264132066	3.6661222250
0.3266633317	3.6549901058
0.3269134567	3.6466286078
0.3271635818	3.6355116937
0.3274137069	3.6243924419
0.3276638319	3.6160425516
0.3279139570	3.6049440022
0.3281640820	3.5938342397
0.3284142071	3.5855125832
0.3286643322	3.5744127377
0.3289144572	3.5660867548
0.3291645823	3.5550047210
0.3294147074	3.5439251464
0.3296648324	3.5356090357
0.3299149575	3.5245478120
0.3301650825	3.5134810050
0.3304152076	3.5051861669
0.3306653327	3.4941307642
0.3309154577	3.4858352297
0.3311655828	3.4747955328
0.3314157079	3.4637547377
0.3316658329	3.4554708284
0.3319159580	3.4444487821
0.3321660830	3.4334255923
0.3324162081	3.4251537164
0.3326663332	3.4141482964
0.3329164582	3.4058838604
0.3331665833	3.3948843863
0.3334167084	3.3838900855
0.3336668334	3.3756342278
0.3339169585	3.3646531716
0.3341670835	3.3536756113
0.3344172086	3.3454317505
0.3346673337	3.3344664484
0.3349174587	3.3235053180
0.3351675838	3.3152848653
0.3354177089	3.3043276201
0.3356678339	3.2961098362
0.3359179590	3.2851699784
0.3361680840	3.2742306540
0.3364182091	3.2656628853
0.3366683342	3.2547424873
0.3369184592	3.2438210772
0.3371685843	3.2356305229
0.3374187094	3.2247223874
0.3376688344	3.2165352402
0.3379189595	3.2056388581
0.3381690845	3.1947443482
0.3384192096	3.1865710080
0.3386693347	3.1756943836
0.3389194597	3.1648193584
0.3391695848	3.1566643007
0.3394197099	3.1457995458
0.3396698349	3.1376472870
0.3399199600	3.1267984314
0.3401700850	3.1159486222
0.3404202101	3.1078089939
0.3406703352	3.0969772490
0.3409204602	3.0861498369
0.3411705853	3.0780313546
0.3414207104	3.0672106334
0.3416708354	3.0590908082
0.3419209605	3.0482910968
0.3421710855	3.0374890456
0.3424212106	3.0293837497
0.3426713357	3.0186023391
0.3429214607	3.0078172777
0.3431715858	2.9997229770
0.3434217109	2.9889591354
0.3436718359	2.9781950177
0.3439219610	2.9701260860
0.3441720860	2.9593710779
0.3444222111	2.9512984692
0.3446723362	2.9405663673
0.3449224612	2.9298296283
0.3451725863	2.9217715983
0.3454227114	2.9110554087
0.3456728364	2.9003360017
0.3459229615	2.8923053862
0.3461730865	2.8815971346
0.3464232116	2.8735638534
0.3466733367	2.8628799206
0.3469234617	2.8521882693
0.3471735868	2.8441707754
0.3474237119	2.8335034776
0.3476738369	2.8228346595
0.3479239620	2.8148358326
0.3481740870	2.8041809153
0.3484242121	2.7961827700
0.3486743372	2.7855461179
0.3489244622	2.7749099945
0.3491745873	2.7669262151
0.3494247124	2.7563103311
0.3496748374	2.7456916898
0.3499249625	2.7377337239
0.3501750875	2.7271255120
0.3504252126	2.7191634210
0.3506753377	2.7085788756
0.3509254627	2.6979956196
0.3511755878	2.6900479901
0.3514257129	2.6794790374
0.3516758379	2.6689133291
0.3519259630	2.6609917878
0.3521760880	2.6504366784
0.3524262131	2.6425168899
0.3526763382	2.6319818241
0.3529264632	2.6214445765
0.3531765883	2.6135394859
0.3534267134	2.6030260453
0.3536768384	2.5925110377
0.3539269635	2.5846167826
0.3541770885	2.5741255730
0.3544272136	2.5636303685
0.3546773387	2.5557613967
0.3549274637	2.5452804698
0.3551775888	2.5374137008
0.3554277139	2.5269517655
0.3556778389	2.5164872127
0.3559279640	2.5086382536
0.3561780890	2.4981998871
0.3564282141	2.4877599631
0.3566783392	2.4799299977
0.3569284642	2.4694997344
0.3571785893	2.4616776200
0.3574287144	2.4512687033
0.3576788394	2.4408630252
0.3579289645	2.4330540301
0.3581790895	2.4226664336
0.3584292146	2.4122800677
0.3586793397	2.4044965925
0.3589294647	2.3941234365
0.3591795898	2.3863408307
0.3594297149	2.3759900238
0.3596798399	2.3656372423
0.3599299650	2.3578708606
0.3601800900	2.3475399880
0.3604302151	2.3372111219
0.3606803402	2.3294689552
0.3609304652	2.3191538195
0.3611805903	2.3114099430
0.3614307154	2.3011190586
0.3616808404	2.2908252315
0.3619309655	2.2830991941
0.3621810905	2.2728288866
0.3624312156	2.2625582782
0.3626813407	2.2548490613
0.3629314657	2.2446014733
0.3631815908	2.2369044727
0.3634317159	2.2266710843
0.3636818409	2.2164382527
0.3639319660	2.2087527850
0.3641820910	2.1985460188
0.3644322161	2.1883308126
0.3646823412	2.1806691422
0.3649324662	2.1704804973
0.3651825913	2.1602910759
0.3654327164	2.1526548596
0.3656828414	2.1418797631
0.3659329665	2.1342451611
0.3661830915	2.1240959814
0.3664332166	2.1139478087
0.3666833417	2.1063328607
0.3669334667	2.0962091529
0.3671835918	2.0860883849
0.3674337169	2.0784995772
0.3676838419	2.0683955064
0.3679339670	2.0608124306
0.3681840920	2.0507291543
0.3684342171	2.0406491413
0.3686843422	2.0330845687
0.3689344672	2.0230330505
0.3691845923	2.0129770036
0.3694347174	2.0054435473
0.3696848424	1.9954075247
0.3699349675	1.9878769601
0.3701850925	1.9778653315
0.3704352176	1.9678562259
0.3706853427	1.9603478224
0.3709354677	1.9503627243
0.3711855928	1.9403771709
0.3714357179	1.9328988336
0.3716858429	1.9229320667
0.3719359680	1.9154592893
0.3721860930	1.9055180997
0.3724362181	1.8955793704
0.3726863432	1.8881251095
0.3729364682	1.8782137209
0.3731865933	1.8683049610
0.3734367184	1.8608705115
0.3736868434	1.8509876659
0.3739369685	1.8435664597
0.3741870935	1.8336995734
0.3744372186	1.8238390656
0.3746873437	1.8164422463
0.3749374687	1.8066039900
0.3751875938	1.7967725223
0.3754377189	1.7893910660
0.3756878439	1.7795866112
0.3759379690	1.7697833900
0.3761880940	1.7624347766
0.3764382191	1.7526517192
0.3766883442	1.7453108130
0.3769384692	1.7355532578
0.3771885943	1.7257986383
0.3774387194	1.7184792648
0.3776888444	1.7087531648
0.3779389695	1.6990270071
0.3781890945	1.6917399119
0.3784392196	1.6820331921
0.3786893447	1.6747543878
0.3789394697	1.6650775339
0.3791895948	1.6554029760
0.3794397199	1.6481480969
0.3796898449	1.6384984130
0.3799399700	1.6288546774
0.3801900950	1.6216288938
0.3804402201	1.6120083863
0.3806903452	1.6047893589
0.3809404702	1.5951937893
0.3811905953	1.5856028144
0.3814407204	1.5784083417
0.3816908454	1.5688474880
0.3819409705	1.5592899556
0.3821910955	1.5521270018
0.3824412206	1.5425890982
0.3826913457	1.5354346732
0.3829414707	1.5259293086
0.3831915958	1.5164219149
0.3834417209	1.5094174204
0.3836918459	1.4999424981
0.3839419710	1.4904713477
0.3841920960	1.4833681657
0.3844422211	1.4739268025
0.3846923462	1.4668353567
0.3849424712	1.4574161934
0.3851925963	1.4480006341
0.3854427214	1.4409375320
0.3856928464	1.4315503567
0.3859429715	1.4221659122
0.3861930965	1.4151319232
0.3864432216	1.4057794940
0.3866933467	1.3964329828
0.3869434717	1.3894294138
0.3871935968	1.3801030710
0.3874437219	1.3731122689
0.3876938469	1.3638179175
0.3879439720	1.3545291646
0.3881940970	1.3475642833
0.3884442221	1.3383053837
0.3886943472	1.3290556632
0.3889444722	1.3221261731
0.3891945973	1.3129014613
0.3894447224	1.3059776924
0.3896948474	1.2967875497
0.3899449725	1.2875966342
0.3901950975	1.2807096697
0.3904452226	1.2715523260
0.3906953477	1.2624059890
0.3909454727	1.2555528815
0.3911955978	1.2464310075
0.3914457229	1.2395932289
0.3916958479	1.2305041768
0.3919459730	1.2214264948
0.3921960980	1.2146161937
0.3924462231	1.2055701726
0.3926963482	1.1965363683
0.3929464732	1.1897633180
0.3931965983	1.1807522858
0.3934467234	1.1739980073
0.3936968484	1.1650224629
0.3939469735	1.1560565701
0.3941970985	1.1493375490
0.3944472236	1.1404079253
0.3946973487	1.1314894504
0.3949474737	1.1248053107
0.3951975988	1.1159296950
0.3954477239	1.1092652974
0.3956978489	1.1004178701
0.3959479740	1.0915815776
0.3961980990	1.0849610411
0.3964482241	1.0761616952
0.3966983492	1.0673803314
0.3969484742	1.0607992229
0.3971985993	1.0520561031
0.3974487244	1.0433267035
0.3976988494	1.0367935489
0.3979489745	1.0280987301
0.3981990995	1.0215857748
0.3984492246	1.0128593539
0.3986993497	1.0042225648
0.3989494747	0.9977510059
0.3991995998	0.9891578717
0.3994497249	0.9805767433
0.3996998499	0.9741537669
0.3999499750	0.9656092947
0.4002001001	0.9592071190
0.4004502251	0.9507047413
0.4007003502	0.9422123650
0.4009504752	0.9358520466
0.4012006003	0.9274027050
0.4014507254	0.9189675171
0.4017008504	0.9126511807
0.4019509755	0.9042499268
0.4022011006	0.8979514298
0.4024512256	0.8895901470
0.4027013507	0.8812388467
0.4029514757	0.8749811167
0.4032016008	0.8666641341
0.4034517259	0.8583658766
0.4037018509	0.8521496023
0.4039519760	0.8438823077
0.4042021011	0.8376849979
0.4044522261	0.8294559644
0.4047023512	0.8212352559
0.4049524762	0.8150799765
0.4052026013	0.8068988179
0.4054527264	0.7987298885
0.4057028514	0.7926100086
0.4059529765	0.7844810720
0.4062031016	0.7783835641
0.4064532266	0.7702864722
0.4067033517	0.7622034306
0.4069534767	0.7561427636
0.4072036018	0.7480934111
0.4074537269	0.7400562874
0.4077038519	0.7340348082
0.4079539770	0.7260345840
0.4082041021	0.7180517836
0.4084542271	0.7120709062
0.4087043522	0.7041154254
0.4089544772	0.6981530534
0.4092046023	0.6902356041
0.4094547274	0.6823317480
0.4097048524	0.6764052912
0.4099549775	0.6685394262
0.4102051026	0.6606897889
0.4104552276	0.6548151856
0.4107053527	0.6469950751
0.4109554777	0.6411360301
0.4112056028	0.6333639121
0.4114557279	0.6256003134
0.4117058529	0.6197880107
0.4119559780	0.6120695266
0.4122061031	0.6043662533
0.4124562281	0.5986053662
0.4127063532	0.5909364347
0.4129564782	0.5851963835
0.4132066033	0.5775810764
0.4134567284	0.5699800701
0.4137068534	0.5642850181
0.4139569785	0.5567232891
0.4142071036	0.5491825336
0.4144572286	0.5435395114
0.4147073537	0.5360414021
0.4149574787	0.5304302990
0.4152076038	0.5229808978
0.4154577289	0.5155550001
0.4157078539	0.5099947704
0.4159579790	0.5026256930
0.4162081041	0.4952759967
0.4164582291	0.4897816267
0.4167083542	0.4824903075
0.4169584792	0.4752263460
0.4172086043	0.4697968552
0.4174587294	0.4625895960
0.4177088544	0.4572025921
0.4179589795	0.4500571479
0.4182091046	0.4429358138
0.4184592296	0.4376142043
0.4187093547	0.4305575276
0.4189594797	0.4235336427
0.4192096048	0.4182825393
0.4194597299	0.4113138659
0.4197098549	0.4061043340
0.4199599800	0.3991990162
0.4202101051	0.3922835575
0.4204602301	0.3871414057
0.4207103552	0.3803296085
0.4209604802	0.3735460947
0.4212106053	0.3684823872
0.4214607304	0.3617601304
0.4217108554	0.3567348252
0.4219609805	0.3500787561
0.4222111056	0.3434513902
0.4224612306	0.3384985278
0.4227113557	0.3319429907
0.4229614807	0.3254129915
0.4232116058	0.3205371717
0.4234617309	0.3140698173
0.4237118559	0.3092413403
0.4239619810	0.3028423452
0.4242121061	0.2964735300
0.4244622311	0.2917176861
0.4247123562	0.2854160513
0.4249624812	0.2791471283
0.4252126063	0.2744661768
0.4254627314	0.2682681768
0.4257128564	0.2636330057
0.4259629815	0.2574978665
0.4262131066	0.2513946947
0.4264632316	0.2468348689
0.4267133567	0.2408048697
0.4269634817	0.2347997898
0.4272136068	0.2303179961
0.4274637319	0.2243878288
0.4277138569	0.2184886705
0.4279639820	0.2140881925
0.4282141071	0.2082555906
0.4284642321	0.2036170880
0.4287143572	0.1978572447
0.4289644822	0.1921356571
0.4292146073	0.1878681798
0.4294647324	0.1822225139
0.4297148574	0.1766196250
0.4299649825	0.1724429388
0.4302151076	0.1669188379
0.4304652326	0.1627966199
0.4307153577	0.1573547289
0.4309654827	0.1519532746
0.4312156078	0.1479282979
0.4314657329	0.1426164601
0.4317158579	0.1373477043
0.4319659830	0.1334291369
0.4322161081	0.1282454906
0.4324662331	0.1243825413
0.4327163582	0.1192890782
0.4329664832	0.1142448814
0.4332166083	0.1104914091
0.4334667334	0.1055488293
0.4337168584	0.1006625039
0.4339669835	0.0967454192
0.4342171086	0.0919818118
0.4344672336	0.0884538261
0.4347173587	0.0838339769
0.4349674837	0.0792969085
0.4352176088	0.0759494352
0.4354677339	0.0715733166
0.4357178589	0.0672929900
0.4359679840	0.0641694295
0.4362181091	0.0601429006
0.4364682341	0.0572216309
0.4367183592	0.0534835198
0.4369684842	0.0498695444
0.4372186093	0.0472217887
0.4374687344	0.0434327715
0.4377188594	0.0400151238
0.4379689845	0.0375197620
0.4382191096	0.0342895111
0.4384692346	0.0311549818
0.4387193597	0.0288689692
0.4389694847	0.0259106111
0.4392196098	0.0236937146
0.4394697349	0.0209158032
0.4397198599	0.0182389601
0.4399699850	0.0163062923
0.4402201101	0.0138356871
0.4404702351	0.0114854415
0.4407203602	0.0097536556
0.4409704852	0.0076589219
0.4412206103	0.0061915046
0.4414707354	0.0043880114
0.4417208604	0.0025959744
0.4419709855	0.0000000000
0.4422211106	0.0000000000
0.4424712356	0.0000000000
0.4427213607	0.0000000000
0.4429714857	0.0000000000
0.4432216108	0.0000000000
0.4434717359	0.0000000000
0.4437218609	0.0000000000
0.4439719860	0.0000000000
0.4442221111	0.0000000000
0.4444722361	0.0000000000
0.4447223612	0.0000000000
0.4449724862	0.0000000000
0.4452226113	0.0000000000
0.4454727364	0.0000000000
0.4457228614	0.0000000000
0.4459729865	0.0000000000
0.4462231116	0.0000000000
0.4464732366	0.0000000000
0.4467233617	0.0000000000
0.4469734867	0.0000000000
0.4472236118	0.0000000000
0.4474737369	0.0000000000
0.4477238619	0.0000000000
0.4479739870	0.0000000000
0.4482241121	0.0000000000
0.4484742371	0.0000000000
0.4487243622	0.0000000000
0.4489744872	0.0000000000
0.4492246123	0.0000000000
0.4494747374	0.0000000000
0.4497248624	0.0000000000
0.4499749875	0.0000000000
0.4502251126	0.0000000000
0.4504752376	0.0000000000
0.4507253627	0.0000000000
0.4509754877	0.0000000000
0.4512256128	0.0000000000
0.4514757379	0.0000000000
0.4517258629	0.0000000000
0.4519759880	0.0000000000
0.4522261131	0.0000000000
0.4524762381	0.0000000000
0.4527263632	0.0000000000
0.4529764882	0.0000000000
0.4532266133	0.0000000000
0.4534767384	0.0000000000
0.4537268634	0.0000000000
0.4539769885	0.0000000000
0.4542271136	0.0000000000
0.4544772386	0.0000000000
0.4547273637	0.0000000000
0.4549774887	0.0000000000
0.4552276138	0.0000000000
0.4554777389	0.0000000000
0.4557278639	0.0000000000
0.4559779890	0.0000000000
0.4562281141	0.0000000000
0.4564782391	0.0000000000
0.4567283642	0.0000000000
0.4569784892	0.0000000000
0.4572286143	0.0000000000
0.4574787394	0.0000000000
0.4577288644	0.0000000000
0.4579789895	0.0000000000
0.4582291146	0.0000000000
0.4584792396	0.0000000000
0.4587293647	0.0000000000
0.4589794897	0.0000000000
0.4592296148	0.0000000000
0.4594797399	0.0000000000
0.4597298649	0.0000000000
0.4599799900	0.0000000000
0.4602301151	0.0000000000
0.4604802401	0.0000000000
0.4607303652	0.0000000000
0.4609804902	0.0000000000
0.4612306153	0.0000000000
0.4614807404	0.0000000000
0.4617308654	0.0000000000
0.4619809905	0.0000000000
0.4622311156	0.0000000000
0.4624812406	0.0000000000
0.4627313657	0.0000000000
0.4629814907	0.0000000000
0.4632316158	0.0000000000
0.4634817409	0.0000000000
0.4637318659	0.0000000000
0.4639819910	0.0000000000
0.4642321161	0.0000000000
0.4644822411	0.0000000000
0.4647323662	0.0000000000
0.4649824912	0.0000000000
0.4652326163	0.0000000000
0.4654827414	0.0000000000
0.4657328664	0.0000000000
0.4659829915	0.0000000000
0.4662331166	0.0000000000
0.4664832416	0.0000000000
0.4667333667	0.0000000000
0.4669834917	0.0000000000
0.4672336168	0.0000000000
0.4674837419	0.0000000000
0.4677338669	0.0000000000
0.4679839920	0.0000000000
0.4682341171	0.0000000000
0.4684842421	0.0000000000
0.4687343672	0.0000000000
0.4689844922	0.0000000000
0.4692346173	0.0000000000
0.4694847424	0.0000000000
0.4697348674	0.0000000000
0.4699849925	0.0000000000
0.4702351176	0.0000000000
0.4704852426	0.0000000000
0.4707353677	0.0000000000
0.4709854927	0.0000000000
0.4712356178	0.0000000000
0.4714857429	0.0000000000
0.4717358679	0.0000000000
0.4719859930	0.0000000000
0.4722361181	0.0000000000
0.4724862431	0.0000000000
0.4727363682	0.0000000000
0.4729864932	0.0000000000
0.4732366183	0.0000000000
0.4734867434	0.0000000000
0.4737368684	0.0000000000
0.4739869935	0.0000000000
0.4742371186	0.0000000000
0.4744872436	0.0000000000
0.4747373687	0.0000000000
0.4749874937	0.0000000000
0.4752376188	0.0000000000
0.4754877439	0.0000000000
0.4757378689	0.0000000000
0.4759879940	0.0000000000
0.4762381191	0.0000000000
0.4764882441	0.0000000000
0.4767383692	0.0000000000
0.4769884942	0.0000000000
0.4772386193	0.0000000000
0.4774887444	0.0000000000
0.4777388694	0.0000000000
0.4779889945	0.0000000000
0.4782391196	0.0000000000
0.4784892446	0.0000000000
0.4787393697	0.0000000000
0.4789894947	0.0000000000
0.4792396198	0.0000000000
0.4794897449	0.0000000000
0.4797398699	0.0000000000
0.4799899950	0.0000000000
0.4802401201	0.0000000000
0.4804902451	0.0000000000
0.4807403702	0.0000000000
0.4809904952	0.0000000000
0.4812406203	0.0000000000
0.4814907454	0.0000000000
0.4817408704	0.0000000000
0.4819909955	0.0000000000
0.4822411206	0.0000000000
0.4824912456	0.0000000000
0.4827413707	0.0000000000
0.4829914957	0.0000000000
0.4832416208	0.0000000000
0.4834917459	0.0000000000
0.4837418709	0.0000000000
0.4839919960	0.0000000000
0.4842421211	0.0000000000
0.4844922461	0.0000000000
0.4847423712	0.0000000000
0.4849924962	0.0000000000
0.4852426213	0.0000000000
0.4854927464	0.0000000000
0.4857428714	0.0000000000
0.4859929965	0.0000000000
0.4862431216	0.0000000000
0.4864932466	0.0000000000
0.4867433717	0.0000000000
0.4869934967	0.0000000000
0.4872436218	0.0000000000
0.4874937469	0.0000000000
0.4877438719	0.0000000000
0.4879939970	0.0000000000
0.4882441221	0.0000000000
0.4884942471	0.0000000000
0.4887443722	0.0000000000
0.4889944972	0.0000000000
0.4892446223	0.0000000000
0.4894947474	0.0000000000
0.4897448724	0.0000000000
0.4899949975	0.0000000000
0.4902451226	0.0000000000
0.4904952476	0.0000000000
0.4907453727	0.0000000000
0.4909954977	0.0000000000
0.4912456228	0.0000000000
0.4914957479	0.0000000000
0.4917458729	0.0000000000
0.4919959980	0.0000000000
0.4922461231	0.0000000000
0.4924962481	0.0000000000
0.4927463732	0.0000000000
0.4929964982	0.0000000000
0.4932466233	0.0000000000
0.4934967484	0.0000000000
0.4937468734	0.0000000000
0.4939969985	0.0000000000
0.4942471236	0.0000000000
0.4944972486	0.0000000000
0.4947473737	0.0000000000
0.4949974987	0.0000000000
0.4952476238	0.0000000000
0.4954977489	0.0000000000
0.4957478739	0.0000000000
0.4959979990	0.0000000000
0.4962481241	0.0000000000
0.4964982491	0.0000000000
0.4967483742	0.0000000000
0.4969984992	0.0000000000
0.4972486243	0.0000000000
0.4974987494	0.0000000000
0.4977488744	0.0000000000
0.4979989995	0.0000000000
0.4982491246	0.0000000000
0.4984992496	0.0000000000
0.4987493747	0.0000000000
0.4989994997	0.0000000000
0.4992496248	0.0000000000
0.4994997499	0.0000000000
0.4997498749	0.0000000000
0.5000000000	0.0000000000
